weekday,time,count
1,00:00,75
1,00:15,69
1,00:30,62
1,00:45,63
1,01:00,73
1,01:15,62
1,01:30,50
1,01:45,54
1,02:00,53
1,02:15,56
1,02:30,48
1,02:45,46
1,03:00,46
1,03:15,45
1,03:30,45
1,03:45,38
1,04:00,36
1,04:15,33
1,04:30,28
1,04:45,34
1,05:00,30
1,05:15,25
1,05:30,19
1,05:45,21
1,06:00,26
1,06:15,19
1,06:30,24
1,06:45,16
1,07:00,22
1,07:15,18
1,07:30,16
1,07:45,24
1,08:00,26
1,08:15,22
1,08:30,20
1,08:45,26
1,09:00,24
1,09:15,29
1,09:30,35
1,09:45,39
1,10:00,42
1,10:15,51
1,10:30,47
1,10:45,56
1,11:00,61
1,11:15,67
1,11:30,77
1,11:45,68
1,12:00,70
1,12:15,81
1,12:30,88
1,12:45,82
1,13:00,94
1,13:15,76
1,13:30,88
1,13:45,71
1,14:00,75
1,14:15,76
1,14:30,70
1,14:45,75
1,15:00,75
1,15:15,70
1,15:30,73
1,15:45,78
1,16:00,81
1,16:15,62
1,16:30,73
1,16:45,80
1,17:00,77
1,17:15,73
1,17:30,64
1,17:45,87
1,18:00,67
1,18:15,76
1,18:30,70
1,18:45,67
1,19:00,71
1,19:15,61
1,19:30,68
1,19:45,62
1,20:00,81
1,20:15,66
1,20:30,75
1,20:45,75
1,21:00,56
1,21:15,55
1,21:30,52
1,21:45,62
1,22:00,54
1,22:15,52
1,22:30,48
1,22:45,46
1,23:00,44
1,23:15,47
1,23:30,43
1,23:45,50
2,00:00,51
2,00:15,39
2,00:30,38
2,00:45,32
2,01:00,32
2,01:15,26
2,01:30,21
2,01:45,25
2,02:00,19
2,02:15,15
2,02:30,22
2,02:45,13
2,03:00,20
2,03:15,10
2,03:30,7
2,03:45,11
2,04:00,6
2,04:15,8
2,04:30,5
2,04:45,8
2,05:00,8
2,05:15,6
2,05:30,4
2,05:45,7
2,06:00,5
2,06:15,9
2,06:30,9
2,06:45,15
2,07:00,16
2,07:15,26
2,07:30,27
2,07:45,51
2,08:00,97
2,08:15,81
2,08:30,79
2,08:45,92
2,09:00,68
2,09:15,78
2,09:30,67
2,09:45,72
2,10:00,63
2,10:15,56
2,10:30,70
2,10:45,88
2,11:00,71
2,11:15,94
2,11:30,88
2,11:45,83
2,12:00,98
2,12:15,96
2,12:30,106
2,12:45,108
2,13:00,114
2,13:15,101
2,13:30,102
2,13:45,104
2,14:00,94
2,14:15,104
2,14:30,115
2,14:45,100
2,15:00,100
2,15:15,118
2,15:30,108
2,15:45,105
2,16:00,106
2,16:15,132
2,16:30,125
2,16:45,119
2,17:00,144
2,17:15,157
2,17:30,146
2,17:45,120
2,18:00,126
2,18:15,135
2,18:30,132
2,18:45,128
2,19:00,123
2,19:15,119
2,19:30,115
2,19:45,119
2,20:00,117
2,20:15,102
2,20:30,111
2,20:45,86
2,21:00,89
2,21:15,70
2,21:30,67
2,21:45,65
2,22:00,68
2,22:15,57
2,22:30,59
2,22:45,51
2,23:00,58
2,23:15,65
2,23:30,57
2,23:45,50
3,00:00,54
3,00:15,42
3,00:30,44
3,00:45,39
3,01:00,32
3,01:15,28
3,01:30,22
3,01:45,17
3,02:00,22
3,02:15,18
3,02:30,24
3,02:45,23
3,03:00,10
3,03:15,12
3,03:30,8
3,03:45,7
3,04:00,9
3,04:15,7
3,04:30,12
3,04:45,6
3,05:00,4
3,05:15,6
3,05:30,6
3,05:45,9
3,06:00,8
3,06:15,10
3,06:30,12
3,06:45,17
3,07:00,23
3,07:15,23
3,07:30,36
3,07:45,63
3,08:00,102
3,08:15,89
3,08:30,81
3,08:45,73
3,09:00,74
3,09:15,75
3,09:30,60
3,09:45,77
3,10:00,75
3,10:15,69
3,10:30,77
3,10:45,79
3,11:00,79
3,11:15,86
3,11:30,94
3,11:45,108
3,12:00,96
3,12:15,93
3,12:30,109
3,12:45,92
3,13:00,118
3,13:15,108
3,13:30,107
3,13:45,107
3,14:00,104
3,14:15,102
3,14:30,121
3,14:45,114
3,15:00,113
3,15:15,109
3,15:30,103
3,15:45,113
3,16:00,113
3,16:15,114
3,16:30,134
3,16:45,127
3,17:00,121
3,17:15,149
3,17:30,143
3,17:45,150
3,18:00,116
3,18:15,143
3,18:30,161
3,18:45,136
3,19:00,121
3,19:15,116
3,19:30,137
3,19:45,119
3,20:00,124
3,20:15,106
3,20:30,101
3,20:45,81
3,21:00,82
3,21:15,80
3,21:30,76
3,21:45,62
3,22:00,53
3,22:15,74
3,22:30,65
3,22:45,62
3,23:00,65
3,23:15,80
3,23:30,65
3,23:45,63
4,00:00,51
4,00:15,54
4,00:30,41
4,00:45,50
4,01:00,35
4,01:15,37
4,01:30,28
4,01:45,23
4,02:00,17
4,02:15,21
4,02:30,17
4,02:45,18
4,03:00,18
4,03:15,12
4,03:30,11
4,03:45,10
4,04:00,15
4,04:15,9
4,04:30,14
4,04:45,9
4,05:00,6
4,05:15,9
4,05:30,7
4,05:45,12
4,06:00,7
4,06:15,8
4,06:30,12
4,06:45,17
4,07:00,18
4,07:15,25
4,07:30,35
4,07:45,55
4,08:00,103
4,08:15,74
4,08:30,70
4,08:45,81
4,09:00,70
4,09:15,67
4,09:30,75
4,09:45,73
4,10:00,61
4,10:15,62
4,10:30,61
4,10:45,79
4,11:00,80
4,11:15,82
4,11:30,99
4,11:45,101
4,12:00,116
4,12:15,109
4,12:30,117
4,12:45,109
4,13:00,117
4,13:15,115
4,13:30,95
4,13:45,110
4,14:00,100
4,14:15,104
4,14:30,96
4,14:45,97
4,15:00,121
4,15:15,120
4,15:30,103
4,15:45,113
4,16:00,108
4,16:15,105
4,16:30,129
4,16:45,119
4,17:00,129
4,17:15,138
4,17:30,134
4,17:45,144
4,18:00,140
4,18:15,143
4,18:30,134
4,18:45,109
4,19:00,122
4,19:15,132
4,19:30,123
4,19:45,122
4,20:00,124
4,20:15,110
4,20:30,129
4,20:45,106
4,21:00,101
4,21:15,89
4,21:30,84
4,21:45,85
4,22:00,70
4,22:15,91
4,22:30,76
4,22:45,80
4,23:00,74
4,23:15,80
4,23:30,69
4,23:45,67
5,00:00,78
5,00:15,59
5,00:30,61
5,00:45,50
5,01:00,49
5,01:15,31
5,01:30,34
5,01:45,26
5,02:00,25
5,02:15,31
5,02:30,28
5,02:45,16
5,03:00,19
5,03:15,21
5,03:30,15
5,03:45,11
5,04:00,11
5,04:15,11
5,04:30,13
5,04:45,7
5,05:00,6
5,05:15,6
5,05:30,8
5,05:45,8
5,06:00,10
5,06:15,12
5,06:30,11
5,06:45,15
5,07:00,18
5,07:15,17
5,07:30,34
5,07:45,51
5,08:00,100
5,08:15,83
5,08:30,97
5,08:45,69
5,09:00,66
5,09:15,77
5,09:30,67
5,09:45,64
5,10:00,63
5,10:15,74
5,10:30,72
5,10:45,91
5,11:00,85
5,11:15,89
5,11:30,90
5,11:45,98
5,12:00,111
5,12:15,102
5,12:30,93
5,12:45,110
5,13:00,110
5,13:15,114
5,13:30,130
5,13:45,105
5,14:00,96
5,14:15,116
5,14:30,123
5,14:45,115
5,15:00,117
5,15:15,116
5,15:30,100
5,15:45,117
5,16:00,111
5,16:15,116
5,16:30,118
5,16:45,123
5,17:00,141
5,17:15,136
5,17:30,162
5,17:45,132
5,18:00,172
5,18:15,128
5,18:30,164
5,18:45,144
5,19:00,117
5,19:15,125
5,19:30,128
5,19:45,107
5,20:00,145
5,20:15,109
5,20:30,116
5,20:45,91
5,21:00,106
5,21:15,91
5,21:30,70
5,21:45,69
5,22:00,64
5,22:15,61
5,22:30,75
5,22:45,70
5,23:00,93
5,23:15,94
5,23:30,79
5,23:45,88
6,00:00,88
6,00:15,94
6,00:30,66
6,00:45,79
6,01:00,52
6,01:15,47
6,01:30,41
6,01:45,28
6,02:00,31
6,02:15,32
6,02:30,35
6,02:45,23
6,03:00,28
6,03:15,27
6,03:30,17
6,03:45,8
6,04:00,18
6,04:15,13
6,04:30,11
6,04:45,9
6,05:00,9
6,05:15,14
6,05:30,11
6,05:45,12
6,06:00,13
6,06:15,5
6,06:30,10
6,06:45,14
6,07:00,20
6,07:15,26
6,07:30,35
6,07:45,48
6,08:00,124
6,08:15,97
6,08:30,78
6,08:45,85
6,09:00,82
6,09:15,53
6,09:30,72
6,09:45,74
6,10:00,73
6,10:15,61
6,10:30,74
6,10:45,82
6,11:00,86
6,11:15,91
6,11:30,109
6,11:45,68
6,12:00,121
6,12:15,104
6,12:30,100
6,12:45,98
6,13:00,141
6,13:15,122
6,13:30,100
6,13:45,108
6,14:00,100
6,14:15,117
6,14:30,116
6,14:45,114
6,15:00,125
6,15:15,109
6,15:30,134
6,15:45,111
6,16:00,116
6,16:15,147
6,16:30,148
6,16:45,167
6,17:00,134
6,17:15,155
6,17:30,149
6,17:45,144
6,18:00,144
6,18:15,133
6,18:30,159
6,18:45,127
6,19:00,112
6,19:15,110
6,19:30,120
6,19:45,91
6,20:00,105
6,20:15,100
6,20:30,106
6,20:45,99
6,21:00,87
6,21:15,86
6,21:30,87
6,21:45,82
6,22:00,75
6,22:15,75
6,22:30,94
6,22:45,88
6,23:00,71
6,23:15,88
6,23:30,71
6,23:45,68
7,00:00,94
7,00:15,69
7,00:30,66
7,00:45,68
7,01:00,60
7,01:15,64
7,01:30,60
7,01:45,47
7,02:00,52
7,02:15,51
7,02:30,40
7,02:45,50
7,03:00,56
7,03:15,46
7,03:30,46
7,03:45,38
7,04:00,30
7,04:15,27
7,04:30,33
7,04:45,32
7,05:00,31
7,05:15,20
7,05:30,25
7,05:45,21
7,06:00,18
7,06:15,24
7,06:30,29
7,06:45,26
7,07:00,24
7,07:15,25
7,07:30,26
7,07:45,21
7,08:00,32
7,08:15,35
7,08:30,37
7,08:45,38
7,09:00,46
7,09:15,52
7,09:30,53
7,09:45,63
7,10:00,68
7,10:15,70
7,10:30,72
7,10:45,75
7,11:00,82
7,11:15,88
7,11:30,88
7,11:45,95
7,12:00,91
7,12:15,96
7,12:30,118
7,12:45,97
7,13:00,89
7,13:15,101
7,13:30,122
7,13:45,100
7,14:00,103
7,14:15,91
7,14:30,100
7,14:45,93
7,15:00,86
7,15:15,84
7,15:30,99
7,15:45,106
7,16:00,96
7,16:15,94
7,16:30,91
7,16:45,81
7,17:00,84
7,17:15,98
7,17:30,92
7,17:45,95
7,18:00,89
7,18:15,86
7,18:30,98
7,18:45,100
7,19:00,82
7,19:15,87
7,19:30,86
7,19:45,87
7,20:00,87
7,20:15,91
7,20:30,77
7,20:45,81
7,21:00,78
7,21:15,79
7,21:30,74
7,21:45,71
7,22:00,64
7,22:15,53
7,22:30,72
7,22:45,57
7,23:00,64
7,23:15,87
7,23:30,62
7,23:45,78
