day,time,count
20-09-2018,07:30,203
20-09-2018,07:45,182
20-09-2018,08:00,242
20-09-2018,08:15,258
20-09-2018,08:30,202
20-09-2018,08:45,252
20-09-2018,09:00,259
20-09-2018,09:15,250
20-09-2018,09:30,270
20-09-2018,09:45,234
20-09-2018,10:00,249
20-09-2018,10:15,237
20-09-2018,10:30,224
20-09-2018,10:45,233
20-09-2018,11:00,206
20-09-2018,11:15,213
20-09-2018,11:30,220
20-09-2018,11:45,218
20-09-2018,12:00,201
20-09-2018,12:15,219
20-09-2018,12:30,235
20-09-2018,12:45,225
20-09-2018,13:00,213
20-09-2018,13:15,205
20-09-2018,13:30,200
20-09-2018,13:45,201
20-09-2018,14:00,220
20-09-2018,14:15,207
20-09-2018,14:30,230
20-09-2018,14:45,201
20-09-2018,15:00,226
20-09-2018,15:15,214
20-09-2018,15:30,218
20-09-2018,15:45,225
20-09-2018,16:00,225
20-09-2018,16:15,223
20-09-2018,16:30,207
20-09-2018,16:45,205
20-09-2018,17:00,205
20-09-2018,17:15,209
20-09-2018,17:30,195
20-09-2018,17:45,198
20-09-2018,18:00,214
20-09-2018,18:15,225
20-09-2018,18:30,223
20-09-2018,18:45,205
20-09-2018,19:00,211
20-09-2018,19:15,223
20-09-2018,19:30,221
20-09-2018,19:45,208
20-09-2018,20:00,231
20-09-2018,20:15,226
20-09-2018,20:30,211
20-09-2018,20:45,189
20-09-2018,21:00,157
20-09-2018,21:15,150
20-09-2018,21:30,136
20-09-2018,21:45,136
20-09-2018,22:00,131
20-09-2018,22:15,128
20-09-2018,22:30,128
20-09-2018,22:45,98
20-09-2018,23:00,115
20-09-2018,23:15,98
20-09-2018,23:30,100
20-09-2018,23:45,94
21-09-2018,00:00,77
21-09-2018,00:15,92
21-09-2018,00:30,61
21-09-2018,00:45,57
21-09-2018,01:00,56
21-09-2018,01:15,35
21-09-2018,01:30,32
21-09-2018,01:45,49
21-09-2018,02:00,35
21-09-2018,02:15,22
21-09-2018,02:30,29
21-09-2018,02:45,15
21-09-2018,03:00,8
21-09-2018,03:15,20
21-09-2018,03:30,12
21-09-2018,03:45,16
21-09-2018,04:00,9
21-09-2018,04:15,19
21-09-2018,04:30,11
21-09-2018,04:45,13
21-09-2018,05:00,18
21-09-2018,05:15,26
21-09-2018,05:30,18
21-09-2018,05:45,23
21-09-2018,06:00,32
21-09-2018,06:15,34
21-09-2018,06:30,58
21-09-2018,06:45,58
21-09-2018,07:00,138
21-09-2018,07:15,172
21-09-2018,07:30,184
21-09-2018,07:45,193
21-09-2018,08:00,226
21-09-2018,08:15,241
21-09-2018,08:30,235
21-09-2018,08:45,222
21-09-2018,09:00,250
21-09-2018,09:15,249
21-09-2018,09:30,250
21-09-2018,09:45,262
21-09-2018,10:00,237
21-09-2018,10:15,224
21-09-2018,10:30,235
21-09-2018,10:45,203
21-09-2018,11:00,231
21-09-2018,11:15,214
21-09-2018,11:30,226
21-09-2018,11:45,229
21-09-2018,12:00,220
21-09-2018,12:15,215
21-09-2018,12:30,212
21-09-2018,12:45,212
21-09-2018,13:00,245
21-09-2018,13:15,211
21-09-2018,13:30,211
21-09-2018,13:45,207
21-09-2018,14:00,201
21-09-2018,14:15,212
21-09-2018,14:30,208
21-09-2018,14:45,216
21-09-2018,15:00,220
21-09-2018,15:15,231
21-09-2018,15:30,192
21-09-2018,15:45,226
21-09-2018,16:00,210
21-09-2018,16:15,225
21-09-2018,16:30,207
21-09-2018,16:45,206
21-09-2018,17:00,205
21-09-2018,17:15,217
21-09-2018,17:30,201
21-09-2018,17:45,180
21-09-2018,18:00,220
21-09-2018,18:15,179
21-09-2018,18:30,213
21-09-2018,18:45,205
21-09-2018,19:00,173
21-09-2018,19:15,198
21-09-2018,19:30,175
21-09-2018,19:45,174
21-09-2018,20:00,199
21-09-2018,20:15,212
21-09-2018,20:30,220
21-09-2018,20:45,216
21-09-2018,21:00,195
21-09-2018,21:15,171
21-09-2018,21:30,166
21-09-2018,21:45,154
21-09-2018,22:00,130
21-09-2018,22:15,128
21-09-2018,22:30,163
21-09-2018,22:45,130
21-09-2018,23:00,122
21-09-2018,23:15,117
21-09-2018,23:30,142
21-09-2018,23:45,131
22-09-2018,00:00,94
22-09-2018,00:15,126
22-09-2018,00:30,110
22-09-2018,00:45,116
22-09-2018,01:00,113
22-09-2018,01:15,109
22-09-2018,01:30,82
22-09-2018,01:45,89
22-09-2018,02:00,53
22-09-2018,02:15,55
22-09-2018,02:30,45
22-09-2018,02:45,46
22-09-2018,03:00,58
22-09-2018,03:15,47
22-09-2018,03:30,72
22-09-2018,03:45,51
22-09-2018,04:00,36
22-09-2018,04:15,42
22-09-2018,04:30,38
22-09-2018,04:45,29
22-09-2018,05:00,24
22-09-2018,05:15,25
22-09-2018,05:30,29
22-09-2018,05:45,23
22-09-2018,06:00,29
22-09-2018,06:15,26
22-09-2018,06:30,33
22-09-2018,06:45,49
22-09-2018,07:00,42
22-09-2018,07:15,52
22-09-2018,07:30,73
22-09-2018,07:45,81
22-09-2018,08:00,95
22-09-2018,08:15,89
22-09-2018,08:30,120
22-09-2018,08:45,112
22-09-2018,09:00,154
22-09-2018,09:15,138
22-09-2018,09:30,165
22-09-2018,09:45,198
22-09-2018,10:00,221
22-09-2018,10:15,197
22-09-2018,10:30,184
22-09-2018,10:45,192
22-09-2018,11:00,175
22-09-2018,11:15,195
22-09-2018,11:30,202
22-09-2018,11:45,201
22-09-2018,12:00,207
22-09-2018,12:15,210
22-09-2018,12:30,217
22-09-2018,12:45,203
22-09-2018,13:00,203
22-09-2018,13:15,146
22-09-2018,13:30,190
22-09-2018,13:45,183
22-09-2018,14:00,174
22-09-2018,14:15,153
22-09-2018,14:30,188
22-09-2018,14:45,171
22-09-2018,15:00,173
22-09-2018,15:15,208
22-09-2018,15:30,202
22-09-2018,15:45,193
22-09-2018,16:00,212
22-09-2018,16:15,208
22-09-2018,16:30,191
22-09-2018,16:45,222
22-09-2018,17:00,186
22-09-2018,17:15,214
22-09-2018,17:30,188
22-09-2018,17:45,220
22-09-2018,18:00,216
22-09-2018,18:15,199
22-09-2018,18:30,208
22-09-2018,18:45,206
22-09-2018,19:00,204
22-09-2018,19:15,212
22-09-2018,19:30,236
22-09-2018,19:45,220
22-09-2018,20:00,213
22-09-2018,20:15,209
22-09-2018,20:30,199
22-09-2018,20:45,217
22-09-2018,21:00,162
22-09-2018,21:15,134
22-09-2018,21:30,141
22-09-2018,21:45,129
22-09-2018,22:00,154
22-09-2018,22:15,149
22-09-2018,22:30,147
22-09-2018,22:45,135
22-09-2018,23:00,159
22-09-2018,23:15,159
22-09-2018,23:30,123
22-09-2018,23:45,133
23-09-2018,00:00,130
23-09-2018,00:15,115
23-09-2018,00:30,103
23-09-2018,00:45,116
23-09-2018,01:00,87
23-09-2018,01:15,91
23-09-2018,01:30,93
23-09-2018,01:45,80
23-09-2018,02:00,67
23-09-2018,02:15,65
23-09-2018,02:30,54
23-09-2018,02:45,63
23-09-2018,03:00,67
23-09-2018,03:15,68
23-09-2018,03:30,57
23-09-2018,03:45,38
23-09-2018,04:00,41
23-09-2018,04:15,44
23-09-2018,04:30,40
23-09-2018,04:45,51
23-09-2018,05:00,35
23-09-2018,05:15,27
23-09-2018,05:30,30
23-09-2018,05:45,28
23-09-2018,06:00,32
23-09-2018,06:15,21
23-09-2018,06:30,22
23-09-2018,06:45,33
23-09-2018,07:00,28
23-09-2018,07:15,26
23-09-2018,07:30,43
23-09-2018,07:45,39
23-09-2018,08:00,41
23-09-2018,08:15,47
23-09-2018,08:30,38
23-09-2018,08:45,59
23-09-2018,09:00,71
23-09-2018,09:15,71
23-09-2018,09:30,87
23-09-2018,09:45,100
23-09-2018,10:00,94
23-09-2018,10:15,114
23-09-2018,10:30,122
23-09-2018,10:45,153
23-09-2018,11:00,145
23-09-2018,11:15,147
23-09-2018,11:30,161
23-09-2018,11:45,160
23-09-2018,12:00,125
23-09-2018,12:15,140
23-09-2018,12:30,160
23-09-2018,12:45,144
23-09-2018,13:00,180
23-09-2018,13:15,161
23-09-2018,13:30,164
23-09-2018,13:45,139
23-09-2018,14:00,149
23-09-2018,14:15,121
23-09-2018,14:30,157
23-09-2018,14:45,133
23-09-2018,15:00,143
23-09-2018,15:15,181
23-09-2018,15:30,181
23-09-2018,15:45,171
23-09-2018,16:00,163
23-09-2018,16:15,177
23-09-2018,16:30,180
23-09-2018,16:45,190
23-09-2018,17:00,170
23-09-2018,17:15,173
23-09-2018,17:30,154
23-09-2018,17:45,189
23-09-2018,18:00,188
23-09-2018,18:15,184
23-09-2018,18:30,177
23-09-2018,18:45,192
23-09-2018,19:00,180
23-09-2018,19:15,208
23-09-2018,19:30,221
23-09-2018,19:45,218
23-09-2018,20:00,197
23-09-2018,20:15,198
23-09-2018,20:30,204
23-09-2018,20:45,184
23-09-2018,21:00,155
23-09-2018,21:15,158
23-09-2018,21:30,140
23-09-2018,21:45,121
23-09-2018,22:00,124
23-09-2018,22:15,117
23-09-2018,22:30,122
23-09-2018,22:45,107
23-09-2018,23:00,111
23-09-2018,23:15,96
23-09-2018,23:30,86
23-09-2018,23:45,78
24-09-2018,00:00,64
24-09-2018,00:15,58
24-09-2018,00:30,60
24-09-2018,00:45,31
24-09-2018,01:00,32
24-09-2018,01:15,29
24-09-2018,01:30,33
24-09-2018,01:45,13
24-09-2018,02:00,23
24-09-2018,02:15,11
24-09-2018,02:30,14
24-09-2018,02:45,5
24-09-2018,03:00,10
24-09-2018,03:15,8
24-09-2018,03:30,11
24-09-2018,03:45,7
24-09-2018,04:00,14
24-09-2018,04:15,7
24-09-2018,04:30,15
24-09-2018,04:45,18
24-09-2018,05:00,10
24-09-2018,05:15,19
24-09-2018,05:30,17
24-09-2018,05:45,27
24-09-2018,06:00,27
24-09-2018,06:15,38
24-09-2018,06:30,43
24-09-2018,06:45,75
24-09-2018,07:00,121
24-09-2018,07:15,130
24-09-2018,07:30,167
24-09-2018,07:45,160
24-09-2018,08:00,214
24-09-2018,08:15,245
24-09-2018,08:30,231
24-09-2018,08:45,229
24-09-2018,09:00,207
24-09-2018,09:15,221
24-09-2018,09:30,232
24-09-2018,09:45,243
24-09-2018,10:00,254
24-09-2018,10:15,230
24-09-2018,10:30,239
24-09-2018,10:45,212
24-09-2018,11:00,226
24-09-2018,11:15,205
24-09-2018,11:30,211
24-09-2018,11:45,202
24-09-2018,12:00,224
24-09-2018,12:15,214
24-09-2018,12:30,215
24-09-2018,12:45,206
24-09-2018,13:00,204
24-09-2018,13:15,196
24-09-2018,13:30,214
24-09-2018,13:45,198
24-09-2018,14:00,216
24-09-2018,14:15,214
24-09-2018,14:30,236
24-09-2018,14:45,210
24-09-2018,15:00,218
24-09-2018,15:15,215
24-09-2018,15:30,224
24-09-2018,15:45,218
24-09-2018,16:00,193
24-09-2018,16:15,213
24-09-2018,16:30,208
24-09-2018,16:45,219
24-09-2018,17:00,214
24-09-2018,17:15,233
24-09-2018,17:30,190
24-09-2018,17:45,218
24-09-2018,18:00,216
24-09-2018,18:15,214
24-09-2018,18:30,241
24-09-2018,18:45,207
24-09-2018,19:00,209
24-09-2018,19:15,220
24-09-2018,19:30,196
24-09-2018,19:45,209
24-09-2018,20:00,203
24-09-2018,20:15,196
24-09-2018,20:30,199
24-09-2018,20:45,190
24-09-2018,21:00,150
24-09-2018,21:15,146
24-09-2018,21:30,129
24-09-2018,21:45,122
24-09-2018,22:00,106
24-09-2018,22:15,107
24-09-2018,22:30,121
24-09-2018,22:45,88
24-09-2018,23:00,88
24-09-2018,23:15,89
24-09-2018,23:30,81
24-09-2018,23:45,85
25-09-2018,00:00,63
25-09-2018,00:15,54
25-09-2018,00:30,57
25-09-2018,00:45,46
25-09-2018,01:00,24
25-09-2018,01:15,31
25-09-2018,01:30,26
25-09-2018,01:45,22
25-09-2018,02:00,13
25-09-2018,02:15,19
25-09-2018,02:30,22
25-09-2018,02:45,19
25-09-2018,03:00,7
25-09-2018,03:15,8
25-09-2018,03:30,12
25-09-2018,03:45,10
25-09-2018,04:00,9
25-09-2018,04:15,8
25-09-2018,04:30,8
25-09-2018,04:45,12
25-09-2018,05:00,11
25-09-2018,05:15,18
25-09-2018,05:30,16
25-09-2018,05:45,27
25-09-2018,06:00,26
25-09-2018,06:15,33
25-09-2018,06:30,45
25-09-2018,06:45,75
25-09-2018,07:00,128
25-09-2018,07:15,142
25-09-2018,07:30,156
25-09-2018,07:45,183
25-09-2018,08:00,241
25-09-2018,08:15,248
25-09-2018,08:30,240
25-09-2018,08:45,239
25-09-2018,09:00,237
25-09-2018,09:15,279
25-09-2018,09:30,259
25-09-2018,09:45,249
25-09-2018,10:00,246
25-09-2018,10:15,229
25-09-2018,10:30,223
25-09-2018,10:45,231
25-09-2018,11:00,228
25-09-2018,11:15,219
25-09-2018,11:30,210
25-09-2018,11:45,212
25-09-2018,12:00,216
25-09-2018,12:15,189
25-09-2018,12:30,216
25-09-2018,12:45,229
25-09-2018,13:00,230
25-09-2018,13:15,200
25-09-2018,13:30,213
25-09-2018,13:45,196
25-09-2018,14:00,221
25-09-2018,14:15,195
25-09-2018,14:30,230
25-09-2018,14:45,210
25-09-2018,15:00,227
25-09-2018,15:15,203
25-09-2018,15:30,229
25-09-2018,15:45,239
25-09-2018,16:00,183
25-09-2018,16:15,208
25-09-2018,16:30,213
25-09-2018,16:45,191
25-09-2018,17:00,227
25-09-2018,17:15,180
25-09-2018,17:30,201
25-09-2018,17:45,212
25-09-2018,18:00,211
25-09-2018,18:15,194
25-09-2018,18:30,202
25-09-2018,18:45,203
25-09-2018,19:00,197
25-09-2018,19:15,180
25-09-2018,19:30,221
25-09-2018,19:45,211
25-09-2018,20:00,203
25-09-2018,20:15,207
25-09-2018,20:30,201
25-09-2018,20:45,207
25-09-2018,21:00,197
25-09-2018,21:15,162
25-09-2018,21:30,124
25-09-2018,21:45,127
25-09-2018,22:00,128
25-09-2018,22:15,111
25-09-2018,22:30,107
25-09-2018,22:45,113
25-09-2018,23:00,99
25-09-2018,23:15,85
25-09-2018,23:30,92
25-09-2018,23:45,88
26-09-2018,00:00,74
26-09-2018,00:15,58
26-09-2018,00:30,53
26-09-2018,00:45,30
26-09-2018,01:00,42
26-09-2018,01:15,37
26-09-2018,01:30,22
26-09-2018,01:45,18
26-09-2018,02:00,10
26-09-2018,02:15,14
26-09-2018,02:30,19
26-09-2018,02:45,13
26-09-2018,03:00,13
26-09-2018,03:15,12
26-09-2018,03:30,10
26-09-2018,03:45,14
26-09-2018,04:00,9
26-09-2018,04:15,13
26-09-2018,04:30,11
26-09-2018,04:45,16
26-09-2018,05:00,9
26-09-2018,05:15,13
26-09-2018,05:30,14
26-09-2018,05:45,27
26-09-2018,06:00,15
26-09-2018,06:15,36
26-09-2018,06:30,41
26-09-2018,06:45,89
26-09-2018,07:00,111
26-09-2018,07:15,141
26-09-2018,07:30,186
26-09-2018,07:45,181
26-09-2018,08:00,204
26-09-2018,08:15,247
26-09-2018,08:30,248
26-09-2018,08:45,260
26-09-2018,09:00,241
26-09-2018,09:15,259
26-09-2018,09:30,261
26-09-2018,09:45,264
26-09-2018,10:00,218
26-09-2018,10:15,228
26-09-2018,10:30,198
26-09-2018,10:45,236
26-09-2018,11:00,228
26-09-2018,11:15,229
26-09-2018,11:30,237
26-09-2018,11:45,182
26-09-2018,12:00,224
26-09-2018,12:15,217
26-09-2018,12:30,230
26-09-2018,12:45,206
26-09-2018,13:00,236
26-09-2018,13:15,213
26-09-2018,13:30,209
26-09-2018,13:45,206
26-09-2018,14:00,204
26-09-2018,14:15,207
26-09-2018,14:30,220
26-09-2018,14:45,223
26-09-2018,15:00,222
26-09-2018,15:15,201
26-09-2018,15:30,225
26-09-2018,15:45,218
26-09-2018,16:00,206
26-09-2018,16:15,207
26-09-2018,16:30,207
26-09-2018,16:45,206
26-09-2018,17:00,210
26-09-2018,17:15,233
26-09-2018,17:30,211
26-09-2018,17:45,218
26-09-2018,18:00,221
26-09-2018,18:15,190
26-09-2018,18:30,207
26-09-2018,18:45,251
26-09-2018,19:00,234
26-09-2018,19:15,214
26-09-2018,19:30,250
26-09-2018,19:45,230
26-09-2018,20:00,232
26-09-2018,20:15,249
26-09-2018,20:30,203
26-09-2018,20:45,208
26-09-2018,21:00,199
26-09-2018,21:15,169
26-09-2018,21:30,156
26-09-2018,21:45,144
26-09-2018,22:00,123
26-09-2018,22:15,100
26-09-2018,22:30,141
26-09-2018,22:45,113
26-09-2018,23:00,100
26-09-2018,23:15,94
26-09-2018,23:30,95
26-09-2018,23:45,103
27-09-2018,00:00,89
27-09-2018,00:15,83
27-09-2018,00:30,53
27-09-2018,00:45,47
27-09-2018,01:00,41
27-09-2018,01:15,37
27-09-2018,01:30,28
27-09-2018,01:45,23
27-09-2018,02:00,19
27-09-2018,02:15,17
27-09-2018,02:30,17
27-09-2018,02:45,15
27-09-2018,03:00,9
27-09-2018,03:15,6
27-09-2018,03:30,19
27-09-2018,03:45,12
27-09-2018,04:00,10
27-09-2018,04:15,11
27-09-2018,04:30,10
27-09-2018,04:45,16
27-09-2018,05:00,17
27-09-2018,05:15,19
27-09-2018,05:30,11
27-09-2018,05:45,20
27-09-2018,06:00,28
27-09-2018,06:15,37
27-09-2018,06:30,43
27-09-2018,06:45,79
27-09-2018,07:00,126
27-09-2018,07:15,166
27-09-2018,07:30,182
27-09-2018,07:45,192
27-09-2018,08:00,223
27-09-2018,08:15,235
27-09-2018,08:30,251
27-09-2018,08:45,235
27-09-2018,09:00,250
27-09-2018,09:15,257
27-09-2018,09:30,234
27-09-2018,09:45,244
27-09-2018,10:00,242
27-09-2018,10:15,247
27-09-2018,10:30,213
27-09-2018,10:45,204
27-09-2018,11:00,217
27-09-2018,11:15,218
27-09-2018,11:30,221
27-09-2018,11:45,169
27-09-2018,12:00,219
27-09-2018,12:15,220
27-09-2018,12:30,226
27-09-2018,12:45,214
27-09-2018,13:00,214
27-09-2018,13:15,188
27-09-2018,13:30,219
27-09-2018,13:45,215
27-09-2018,14:00,216
27-09-2018,14:15,213
27-09-2018,14:30,222
27-09-2018,14:45,220
27-09-2018,15:00,210
27-09-2018,15:15,205
27-09-2018,15:30,232
27-09-2018,15:45,211
27-09-2018,16:00,195
27-09-2018,16:15,205
27-09-2018,16:30,215
27-09-2018,16:45,181
27-09-2018,17:00,208
27-09-2018,17:15,218
27-09-2018,17:30,225
27-09-2018,17:45,209
27-09-2018,18:00,197
27-09-2018,18:15,205
27-09-2018,18:30,230
27-09-2018,18:45,187
27-09-2018,19:00,205
27-09-2018,19:15,217
27-09-2018,19:30,246
27-09-2018,19:45,224
27-09-2018,20:00,223
27-09-2018,20:15,211
27-09-2018,20:30,223
27-09-2018,20:45,202
27-09-2018,21:00,180
27-09-2018,21:15,155
27-09-2018,21:30,132
27-09-2018,21:45,143
27-09-2018,22:00,119
27-09-2018,22:15,97
27-09-2018,22:30,124
27-09-2018,22:45,122
27-09-2018,23:00,119
27-09-2018,23:15,107
27-09-2018,23:30,96
27-09-2018,23:45,119
28-09-2018,00:00,100
28-09-2018,00:15,89
28-09-2018,00:30,81
28-09-2018,00:45,92
28-09-2018,01:00,60
28-09-2018,01:15,38
28-09-2018,01:30,40
28-09-2018,01:45,40
28-09-2018,02:00,27
28-09-2018,02:15,25
28-09-2018,02:30,24
28-09-2018,02:45,18
28-09-2018,03:00,21
28-09-2018,03:15,9
28-09-2018,03:30,10
28-09-2018,03:45,12
28-09-2018,04:00,14
28-09-2018,04:15,13
28-09-2018,04:30,10
28-09-2018,04:45,19
28-09-2018,05:00,12
28-09-2018,05:15,13
28-09-2018,05:30,18
28-09-2018,05:45,26
28-09-2018,06:00,32
28-09-2018,06:15,31
28-09-2018,06:30,52
28-09-2018,06:45,60
28-09-2018,07:00,120
28-09-2018,07:15,169
28-09-2018,07:30,173
28-09-2018,07:45,176
28-09-2018,08:00,200
28-09-2018,08:15,228
28-09-2018,08:30,245
28-09-2018,08:45,231
28-09-2018,09:00,259
28-09-2018,09:15,244
28-09-2018,09:30,225
28-09-2018,09:45,239
28-09-2018,10:00,232
28-09-2018,10:15,231
28-09-2018,10:30,223
28-09-2018,10:45,229
28-09-2018,11:00,223
28-09-2018,11:15,209
28-09-2018,11:30,217
28-09-2018,11:45,223
28-09-2018,12:00,226
28-09-2018,12:15,216
28-09-2018,12:30,214
28-09-2018,12:45,201
28-09-2018,13:00,216
28-09-2018,13:15,219
28-09-2018,13:30,230
28-09-2018,13:45,217
28-09-2018,14:00,230
28-09-2018,14:15,199
28-09-2018,14:30,241
28-09-2018,14:45,211
28-09-2018,15:00,217
28-09-2018,15:15,203
28-09-2018,15:30,199
28-09-2018,15:45,228
28-09-2018,16:00,226
28-09-2018,16:15,230
28-09-2018,16:30,195
28-09-2018,16:45,234
28-09-2018,17:00,189
28-09-2018,17:15,216
28-09-2018,17:30,216
28-09-2018,17:45,205
28-09-2018,18:00,231
28-09-2018,18:15,192
28-09-2018,18:30,182
28-09-2018,18:45,199
28-09-2018,19:00,193
28-09-2018,19:15,210
28-09-2018,19:30,205
28-09-2018,19:45,187
28-09-2018,20:00,178
28-09-2018,20:15,180
28-09-2018,20:30,198
28-09-2018,20:45,207
28-09-2018,21:00,206
28-09-2018,21:15,203
28-09-2018,21:30,190
28-09-2018,21:45,168
28-09-2018,22:00,156
28-09-2018,22:15,145
28-09-2018,22:30,139
28-09-2018,22:45,125
28-09-2018,23:00,131
28-09-2018,23:15,140
28-09-2018,23:30,124
28-09-2018,23:45,126
29-09-2018,00:00,130
29-09-2018,00:15,128
29-09-2018,00:30,107
29-09-2018,00:45,80
29-09-2018,01:00,96
29-09-2018,01:15,78
29-09-2018,01:30,74
29-09-2018,01:45,65
29-09-2018,02:00,61
29-09-2018,02:15,55
29-09-2018,02:30,44
29-09-2018,02:45,47
29-09-2018,03:00,38
29-09-2018,03:15,36
29-09-2018,03:30,46
29-09-2018,03:45,40
29-09-2018,04:00,43
29-09-2018,04:15,28
29-09-2018,04:30,31
29-09-2018,04:45,36
29-09-2018,05:00,27
29-09-2018,05:15,22
29-09-2018,05:30,27
29-09-2018,05:45,30
29-09-2018,06:00,21
29-09-2018,06:15,30
29-09-2018,06:30,37
29-09-2018,06:45,35
29-09-2018,07:00,58
29-09-2018,07:15,48
29-09-2018,07:30,73
29-09-2018,07:45,83
29-09-2018,08:00,113
29-09-2018,08:15,119
29-09-2018,08:30,140
29-09-2018,08:45,173
29-09-2018,09:00,178
29-09-2018,09:15,158
29-09-2018,09:30,192
29-09-2018,09:45,197
29-09-2018,10:00,198
29-09-2018,10:15,230
29-09-2018,10:30,196
29-09-2018,10:45,201
29-09-2018,11:00,213
29-09-2018,11:15,221
29-09-2018,11:30,199
29-09-2018,11:45,197
29-09-2018,12:00,225
29-09-2018,12:15,210
29-09-2018,12:30,211
29-09-2018,12:45,211
29-09-2018,13:00,210
29-09-2018,13:15,164
29-09-2018,13:30,209
29-09-2018,13:45,221
29-09-2018,14:00,205
29-09-2018,14:15,180
29-09-2018,14:30,201
29-09-2018,14:45,205
29-09-2018,15:00,225
29-09-2018,15:15,235
29-09-2018,15:30,203
29-09-2018,15:45,221
29-09-2018,16:00,226
29-09-2018,16:15,197
29-09-2018,16:30,214
29-09-2018,16:45,212
29-09-2018,17:00,225
29-09-2018,17:15,198
29-09-2018,17:30,205
29-09-2018,17:45,208
29-09-2018,18:00,200
29-09-2018,18:15,191
29-09-2018,18:30,210
29-09-2018,18:45,194
29-09-2018,19:00,223
29-09-2018,19:15,203
29-09-2018,19:30,211
29-09-2018,19:45,200
29-09-2018,20:00,212
29-09-2018,20:15,217
29-09-2018,20:30,231
29-09-2018,20:45,217
29-09-2018,21:00,222
29-09-2018,21:15,202
29-09-2018,21:30,193
29-09-2018,21:45,153
29-09-2018,22:00,140
29-09-2018,22:15,140
29-09-2018,22:30,138
29-09-2018,22:45,129
29-09-2018,23:00,111
29-09-2018,23:15,123
29-09-2018,23:30,129
29-09-2018,23:45,133
30-09-2018,00:00,126
30-09-2018,00:15,105
30-09-2018,00:30,117
30-09-2018,00:45,115
30-09-2018,01:00,78
30-09-2018,01:15,92
30-09-2018,01:30,62
30-09-2018,01:45,90
30-09-2018,02:00,60
30-09-2018,02:15,57
30-09-2018,02:30,63
30-09-2018,02:45,53
30-09-2018,03:00,36
30-09-2018,03:15,37
30-09-2018,03:30,41
30-09-2018,03:45,43
30-09-2018,04:00,32
30-09-2018,04:15,40
30-09-2018,04:30,44
30-09-2018,04:45,37
30-09-2018,05:00,21
30-09-2018,05:15,23
30-09-2018,05:30,23
30-09-2018,05:45,19
30-09-2018,06:00,22
30-09-2018,06:15,22
30-09-2018,06:30,23
30-09-2018,06:45,19
30-09-2018,07:00,24
30-09-2018,07:15,24
30-09-2018,07:30,53
30-09-2018,07:45,45
30-09-2018,08:00,50
30-09-2018,08:15,57
30-09-2018,08:30,50
30-09-2018,08:45,75
30-09-2018,09:00,98
30-09-2018,09:15,65
30-09-2018,09:30,101
30-09-2018,09:45,99
30-09-2018,10:00,94
30-09-2018,10:15,117
30-09-2018,10:30,142
30-09-2018,10:45,160
30-09-2018,11:00,157
30-09-2018,11:15,153
30-09-2018,11:30,172
30-09-2018,11:45,149
30-09-2018,12:00,152
30-09-2018,12:15,164
30-09-2018,12:30,180
30-09-2018,12:45,149
30-09-2018,13:00,192
30-09-2018,13:15,156
30-09-2018,13:30,186
30-09-2018,13:45,149
30-09-2018,14:00,170
30-09-2018,14:15,138
30-09-2018,14:30,156
30-09-2018,14:45,128
30-09-2018,15:00,206
30-09-2018,15:15,183
30-09-2018,15:30,183
30-09-2018,15:45,192
30-09-2018,16:00,167
30-09-2018,16:15,190
30-09-2018,16:30,191
30-09-2018,16:45,208
30-09-2018,17:00,199
30-09-2018,17:15,219
30-09-2018,17:30,196
30-09-2018,17:45,207
30-09-2018,18:00,221
30-09-2018,18:15,196
30-09-2018,18:30,228
30-09-2018,18:45,209
30-09-2018,19:00,224
30-09-2018,19:15,188
30-09-2018,19:30,218
30-09-2018,19:45,206
30-09-2018,20:00,217
30-09-2018,20:15,218
30-09-2018,20:30,191
30-09-2018,20:45,179
30-09-2018,21:00,151
30-09-2018,21:15,145
30-09-2018,21:30,147
30-09-2018,21:45,114
30-09-2018,22:00,123
30-09-2018,22:15,107
30-09-2018,22:30,111
30-09-2018,22:45,101
30-09-2018,23:00,96
30-09-2018,23:15,77
30-09-2018,23:30,92
30-09-2018,23:45,71
01-10-2018,00:00,48
01-10-2018,00:15,57
01-10-2018,00:30,51
01-10-2018,00:45,40
01-10-2018,01:00,24
01-10-2018,01:15,28
01-10-2018,01:30,31
01-10-2018,01:45,20
01-10-2018,02:00,14
01-10-2018,02:15,14
01-10-2018,02:30,12
01-10-2018,02:45,12
01-10-2018,03:00,6
01-10-2018,03:15,5
01-10-2018,03:30,7
01-10-2018,03:45,13
01-10-2018,04:00,7
01-10-2018,04:15,7
01-10-2018,04:30,11
01-10-2018,04:45,15
01-10-2018,05:00,16
01-10-2018,05:15,22
01-10-2018,05:30,16
01-10-2018,05:45,14
01-10-2018,06:00,34
01-10-2018,06:15,35
01-10-2018,06:30,46
01-10-2018,06:45,75
01-10-2018,07:00,132
01-10-2018,07:15,133
01-10-2018,07:30,137
01-10-2018,07:45,202
01-10-2018,08:00,229
01-10-2018,08:15,240
01-10-2018,08:30,209
01-10-2018,08:45,210
01-10-2018,09:00,239
01-10-2018,09:15,258
01-10-2018,09:30,231
01-10-2018,09:45,233
01-10-2018,10:00,212
01-10-2018,10:15,242
01-10-2018,10:30,212
01-10-2018,10:45,229
01-10-2018,11:00,204
01-10-2018,11:15,226
01-10-2018,11:30,212
01-10-2018,11:45,220
01-10-2018,12:00,216
01-10-2018,12:15,227
01-10-2018,12:30,200
01-10-2018,12:45,215
01-10-2018,13:00,195
01-10-2018,13:15,192
01-10-2018,13:30,184
01-10-2018,13:45,155
01-10-2018,14:00,216
01-10-2018,14:15,203
01-10-2018,14:30,213
01-10-2018,14:45,221
01-10-2018,15:00,239
01-10-2018,15:15,229
01-10-2018,15:30,198
01-10-2018,15:45,220
01-10-2018,16:00,194
01-10-2018,16:15,225
01-10-2018,16:30,213
01-10-2018,16:45,209
01-10-2018,17:00,193
01-10-2018,17:15,203
01-10-2018,17:30,201
01-10-2018,17:45,212
01-10-2018,18:00,202
01-10-2018,18:15,166
01-10-2018,18:30,200
01-10-2018,18:45,208
01-10-2018,19:00,226
01-10-2018,19:15,197
01-10-2018,19:30,219
01-10-2018,19:45,212
01-10-2018,20:00,210
01-10-2018,20:15,217
01-10-2018,20:30,192
01-10-2018,20:45,159
01-10-2018,21:00,168
01-10-2018,21:15,130
01-10-2018,21:30,135
01-10-2018,21:45,118
01-10-2018,22:00,110
01-10-2018,22:15,112
01-10-2018,22:30,102
01-10-2018,22:45,94
01-10-2018,23:00,87
01-10-2018,23:15,77
01-10-2018,23:30,86
01-10-2018,23:45,67
02-10-2018,00:00,66
02-10-2018,00:15,48
02-10-2018,00:30,45
02-10-2018,00:45,36
02-10-2018,01:00,41
02-10-2018,01:15,37
02-10-2018,01:30,25
02-10-2018,01:45,18
02-10-2018,02:00,17
02-10-2018,02:15,11
02-10-2018,02:30,24
02-10-2018,02:45,9
02-10-2018,03:00,8
02-10-2018,03:15,5
02-10-2018,03:30,14
02-10-2018,03:45,8
02-10-2018,04:00,6
02-10-2018,04:15,10
02-10-2018,04:30,6
02-10-2018,04:45,8
02-10-2018,05:00,14
02-10-2018,05:15,15
02-10-2018,05:30,15
02-10-2018,05:45,17
02-10-2018,06:00,26
02-10-2018,06:15,25
02-10-2018,06:30,58
02-10-2018,06:45,68
02-10-2018,07:00,123
02-10-2018,07:15,155
02-10-2018,07:30,191
02-10-2018,07:45,182
02-10-2018,08:00,214
02-10-2018,08:15,262
02-10-2018,08:30,213
02-10-2018,08:45,227
02-10-2018,09:00,250
02-10-2018,09:15,225
02-10-2018,09:30,263
02-10-2018,09:45,241
02-10-2018,10:00,253
02-10-2018,10:15,228
02-10-2018,10:30,195
02-10-2018,10:45,209
02-10-2018,11:00,212
02-10-2018,11:15,209
02-10-2018,11:30,217
02-10-2018,11:45,189
02-10-2018,12:00,228
02-10-2018,12:15,201
02-10-2018,12:30,206
02-10-2018,12:45,219
02-10-2018,13:00,234
02-10-2018,13:15,210
02-10-2018,13:30,229
02-10-2018,13:45,220
02-10-2018,14:00,227
02-10-2018,14:15,210
02-10-2018,14:30,205
02-10-2018,14:45,200
02-10-2018,15:00,170
02-10-2018,15:15,166
02-10-2018,15:30,162
02-10-2018,15:45,207
02-10-2018,16:00,213
02-10-2018,16:15,218
02-10-2018,16:30,209
02-10-2018,16:45,175
02-10-2018,17:00,206
02-10-2018,17:15,222
02-10-2018,17:30,219
02-10-2018,17:45,224
02-10-2018,18:00,212
02-10-2018,18:15,197
02-10-2018,18:30,205
02-10-2018,18:45,209
02-10-2018,19:00,211
02-10-2018,19:15,238
02-10-2018,19:30,225
02-10-2018,19:45,204
02-10-2018,20:00,213
02-10-2018,20:15,212
02-10-2018,20:30,192
02-10-2018,20:45,172
02-10-2018,21:00,172
02-10-2018,21:15,144
02-10-2018,21:30,136
02-10-2018,21:45,114
02-10-2018,22:00,112
02-10-2018,22:15,99
02-10-2018,22:30,105
02-10-2018,22:45,100
02-10-2018,23:00,88
02-10-2018,23:15,90
02-10-2018,23:30,101
02-10-2018,23:45,82
03-10-2018,00:00,78
03-10-2018,00:15,52
03-10-2018,00:30,69
03-10-2018,00:45,49
03-10-2018,01:00,35
03-10-2018,01:15,32
03-10-2018,01:30,25
03-10-2018,01:45,21
03-10-2018,02:00,29
03-10-2018,02:15,27
03-10-2018,02:30,8
03-10-2018,02:45,14
03-10-2018,03:00,16
03-10-2018,03:15,10
03-10-2018,03:30,13
03-10-2018,03:45,16
03-10-2018,04:00,13
03-10-2018,04:15,8
03-10-2018,04:30,10
03-10-2018,04:45,15
03-10-2018,05:00,15
03-10-2018,05:15,15
03-10-2018,05:30,11
03-10-2018,05:45,24
03-10-2018,06:00,25
03-10-2018,06:15,33
03-10-2018,06:30,48
03-10-2018,06:45,74
03-10-2018,07:00,119
03-10-2018,07:15,133
03-10-2018,07:30,187
03-10-2018,07:45,203
03-10-2018,08:00,197
03-10-2018,08:15,240
03-10-2018,08:30,226
03-10-2018,08:45,226
03-10-2018,09:00,237
03-10-2018,09:15,237
03-10-2018,09:30,272
03-10-2018,09:45,246
03-10-2018,10:00,217
03-10-2018,10:15,236
03-10-2018,10:30,232
03-10-2018,10:45,212
03-10-2018,11:00,234
03-10-2018,11:15,211
03-10-2018,11:30,218
03-10-2018,11:45,209
03-10-2018,12:00,233
03-10-2018,12:15,234
03-10-2018,12:30,222
03-10-2018,12:45,247
03-10-2018,13:00,203
03-10-2018,13:15,235
03-10-2018,13:30,204
03-10-2018,13:45,192
03-10-2018,14:00,180
03-10-2018,14:15,157
03-10-2018,14:30,190
03-10-2018,14:45,230
03-10-2018,15:00,227
03-10-2018,15:15,220
03-10-2018,15:30,225
03-10-2018,15:45,221
03-10-2018,16:00,224
03-10-2018,16:15,214
03-10-2018,16:30,213
03-10-2018,16:45,228
03-10-2018,17:00,205
03-10-2018,17:15,216
03-10-2018,17:30,190
03-10-2018,17:45,181
03-10-2018,18:00,221
03-10-2018,18:15,175
03-10-2018,18:30,204
03-10-2018,18:45,189
03-10-2018,19:00,205
03-10-2018,19:15,204
03-10-2018,19:30,213
03-10-2018,19:45,203
03-10-2018,20:00,231
03-10-2018,20:15,213
03-10-2018,20:30,219
03-10-2018,20:45,179
03-10-2018,21:00,151
03-10-2018,21:15,157
03-10-2018,21:30,146
03-10-2018,21:45,109
03-10-2018,22:00,140
03-10-2018,22:15,106
03-10-2018,22:30,98
03-10-2018,22:45,89
03-10-2018,23:00,111
03-10-2018,23:15,96
03-10-2018,23:30,89
03-10-2018,23:45,84
04-10-2018,00:00,90
04-10-2018,00:15,75
04-10-2018,00:30,52
04-10-2018,00:45,32
04-10-2018,01:00,37
04-10-2018,01:15,27
04-10-2018,01:30,26
04-10-2018,01:45,28
04-10-2018,02:00,19
04-10-2018,02:15,22
04-10-2018,02:30,17
04-10-2018,02:45,15
04-10-2018,03:00,11
04-10-2018,03:15,8
04-10-2018,03:30,18
04-10-2018,03:45,11
04-10-2018,04:00,9
04-10-2018,04:15,7
04-10-2018,04:30,7
04-10-2018,04:45,13
04-10-2018,05:00,20
04-10-2018,05:15,19
04-10-2018,05:30,13
04-10-2018,05:45,23
04-10-2018,06:00,26
04-10-2018,06:15,32
04-10-2018,06:30,55
04-10-2018,06:45,89
04-10-2018,07:00,103
04-10-2018,07:15,144
04-10-2018,07:30,172
04-10-2018,07:45,185
04-10-2018,08:00,196
04-10-2018,08:15,220
04-10-2018,08:30,226
04-10-2018,08:45,218
04-10-2018,09:00,216
04-10-2018,09:15,212
04-10-2018,09:30,236
04-10-2018,09:45,243
04-10-2018,10:00,240
04-10-2018,10:15,220
04-10-2018,10:30,199
04-10-2018,10:45,173
04-10-2018,11:00,189
04-10-2018,11:15,184
04-10-2018,11:30,187
04-10-2018,11:45,206
04-10-2018,12:00,224
04-10-2018,12:15,198
