time,vehicle
2019-01-06 11:57:29,light
2019-01-06 11:57:55,light
2019-01-06 11:57:57,light
2019-01-06 11:58:00,light
2019-01-06 11:58:15,light
2019-01-06 11:58:37,light
2019-01-06 11:58:45,light
2019-01-06 11:58:48,light
2019-01-06 11:59:17,light
2019-01-06 11:59:48,light
2019-01-06 12:00:00,light
2019-01-06 12:00:09,light
2019-01-06 12:00:13,light
2019-01-06 12:00:14,light
2019-01-06 12:00:27,light
2019-01-06 12:00:47,light
2019-01-06 12:00:51,light
2019-01-06 12:00:58,light
2019-01-06 12:01:01,light
2019-01-06 12:01:52,light
2019-01-06 12:01:57,light
2019-01-06 12:01:59,light
2019-01-06 12:02:22,light
2019-01-06 12:02:24,light
