day,time,count
20-09-2018,07:30,58
20-09-2018,07:45,121
20-09-2018,08:00,167
20-09-2018,08:15,193
20-09-2018,08:30,134
20-09-2018,08:45,199
20-09-2018,09:00,154
20-09-2018,09:15,166
20-09-2018,09:30,186
20-09-2018,09:45,180
20-09-2018,10:00,165
20-09-2018,10:15,148
20-09-2018,10:30,146
20-09-2018,10:45,142
20-09-2018,11:00,130
20-09-2018,11:15,138
20-09-2018,11:30,169
20-09-2018,11:45,156
20-09-2018,12:00,145
20-09-2018,12:15,156
20-09-2018,12:30,152
20-09-2018,12:45,168
20-09-2018,13:00,144
20-09-2018,13:15,128
20-09-2018,13:30,138
20-09-2018,13:45,134
20-09-2018,14:00,124
20-09-2018,14:15,139
20-09-2018,14:30,143
20-09-2018,14:45,141
20-09-2018,15:00,154
20-09-2018,15:15,146
20-09-2018,15:30,162
20-09-2018,15:45,167
20-09-2018,16:00,175
20-09-2018,16:15,144
20-09-2018,16:30,164
20-09-2018,16:45,144
20-09-2018,17:00,165
20-09-2018,17:15,132
20-09-2018,17:30,144
20-09-2018,17:45,133
20-09-2018,18:00,150
20-09-2018,18:15,156
20-09-2018,18:30,146
20-09-2018,18:45,103
20-09-2018,19:00,105
20-09-2018,19:15,114
20-09-2018,19:30,111
20-09-2018,19:45,132
20-09-2018,20:00,142
20-09-2018,20:15,138
20-09-2018,20:30,125
20-09-2018,20:45,113
20-09-2018,21:00,104
20-09-2018,21:15,97
20-09-2018,21:30,84
20-09-2018,21:45,102
20-09-2018,22:00,117
20-09-2018,22:15,92
20-09-2018,22:30,95
20-09-2018,22:45,75
20-09-2018,23:00,87
20-09-2018,23:15,74
20-09-2018,23:30,69
20-09-2018,23:45,70
21-09-2018,00:00,56
21-09-2018,00:15,80
21-09-2018,00:30,53
21-09-2018,00:45,50
21-09-2018,01:00,45
21-09-2018,01:15,30
21-09-2018,01:30,30
21-09-2018,01:45,27
21-09-2018,02:00,20
21-09-2018,02:15,19
21-09-2018,02:30,20
21-09-2018,02:45,14
21-09-2018,03:00,12
21-09-2018,03:15,11
21-09-2018,03:30,10
21-09-2018,03:45,12
21-09-2018,04:00,4
21-09-2018,04:15,7
21-09-2018,04:30,6
21-09-2018,04:45,7
21-09-2018,05:00,6
21-09-2018,05:15,11
21-09-2018,05:30,8
21-09-2018,05:45,10
21-09-2018,06:00,7
21-09-2018,06:15,12
21-09-2018,06:30,20
21-09-2018,06:45,20
21-09-2018,07:00,30
21-09-2018,07:15,49
21-09-2018,07:30,52
21-09-2018,07:45,123
21-09-2018,08:00,180
21-09-2018,08:15,196
21-09-2018,08:30,183
21-09-2018,08:45,193
21-09-2018,09:00,183
21-09-2018,09:15,171
21-09-2018,09:30,168
21-09-2018,09:45,166
21-09-2018,10:00,193
21-09-2018,10:15,163
21-09-2018,10:30,154
21-09-2018,10:45,141
21-09-2018,11:00,134
21-09-2018,11:15,125
21-09-2018,11:30,150
21-09-2018,11:45,128
21-09-2018,12:00,126
21-09-2018,12:15,160
21-09-2018,12:30,143
21-09-2018,12:45,159
21-09-2018,13:00,148
21-09-2018,13:15,152
21-09-2018,13:30,143
21-09-2018,13:45,171
21-09-2018,14:00,169
21-09-2018,14:15,128
21-09-2018,14:30,145
21-09-2018,14:45,150
21-09-2018,15:00,164
21-09-2018,15:15,167
21-09-2018,15:30,140
21-09-2018,15:45,151
21-09-2018,16:00,166
21-09-2018,16:15,153
21-09-2018,16:30,129
21-09-2018,16:45,130
21-09-2018,17:00,145
21-09-2018,17:15,153
21-09-2018,17:30,111
21-09-2018,17:45,88
21-09-2018,18:00,108
21-09-2018,18:15,64
21-09-2018,18:30,63
21-09-2018,18:45,98
21-09-2018,19:00,128
21-09-2018,19:15,91
21-09-2018,19:30,106
21-09-2018,19:45,136
21-09-2018,20:00,138
21-09-2018,20:15,143
21-09-2018,20:30,129
21-09-2018,20:45,135
21-09-2018,21:00,111
21-09-2018,21:15,103
21-09-2018,21:30,110
21-09-2018,21:45,99
21-09-2018,22:00,106
21-09-2018,22:15,95
21-09-2018,22:30,110
21-09-2018,22:45,73
21-09-2018,23:00,77
21-09-2018,23:15,81
21-09-2018,23:30,83
21-09-2018,23:45,87
22-09-2018,00:00,68
22-09-2018,00:15,83
22-09-2018,00:30,69
22-09-2018,00:45,68
22-09-2018,01:00,88
22-09-2018,01:15,55
22-09-2018,01:30,58
22-09-2018,01:45,57
22-09-2018,02:00,38
22-09-2018,02:15,35
22-09-2018,02:30,30
22-09-2018,02:45,27
22-09-2018,03:00,34
22-09-2018,03:15,27
22-09-2018,03:30,25
22-09-2018,03:45,14
22-09-2018,04:00,26
22-09-2018,04:15,21
22-09-2018,04:30,9
22-09-2018,04:45,21
22-09-2018,05:00,12
22-09-2018,05:15,11
22-09-2018,05:30,12
22-09-2018,05:45,7
22-09-2018,06:00,16
22-09-2018,06:15,12
22-09-2018,06:30,20
22-09-2018,06:45,22
22-09-2018,07:00,14
22-09-2018,07:15,26
22-09-2018,07:30,30
22-09-2018,07:45,33
22-09-2018,08:00,51
22-09-2018,08:15,53
22-09-2018,08:30,60
22-09-2018,08:45,74
22-09-2018,09:00,78
22-09-2018,09:15,88
22-09-2018,09:30,119
22-09-2018,09:45,104
22-09-2018,10:00,156
22-09-2018,10:15,142
22-09-2018,10:30,146
22-09-2018,10:45,135
22-09-2018,11:00,137
22-09-2018,11:15,167
22-09-2018,11:30,164
22-09-2018,11:45,152
22-09-2018,12:00,174
22-09-2018,12:15,170
22-09-2018,12:30,175
22-09-2018,12:45,166
22-09-2018,13:00,147
22-09-2018,13:15,142
22-09-2018,13:30,164
22-09-2018,13:45,168
22-09-2018,14:00,144
22-09-2018,14:15,126
22-09-2018,14:30,156
22-09-2018,14:45,150
22-09-2018,15:00,136
22-09-2018,15:15,155
22-09-2018,15:30,140
22-09-2018,15:45,156
22-09-2018,16:00,126
22-09-2018,16:15,157
22-09-2018,16:30,136
22-09-2018,16:45,132
22-09-2018,17:00,141
22-09-2018,17:15,135
22-09-2018,17:30,133
22-09-2018,17:45,126
22-09-2018,18:00,133
22-09-2018,18:15,149
22-09-2018,18:30,136
22-09-2018,18:45,125
22-09-2018,19:00,136
22-09-2018,19:15,133
22-09-2018,19:30,145
22-09-2018,19:45,140
22-09-2018,20:00,127
22-09-2018,20:15,140
22-09-2018,20:30,130
22-09-2018,20:45,122
22-09-2018,21:00,89
22-09-2018,21:15,100
22-09-2018,21:30,94
22-09-2018,21:45,96
22-09-2018,22:00,77
22-09-2018,22:15,57
22-09-2018,22:30,87
22-09-2018,22:45,65
22-09-2018,23:00,68
22-09-2018,23:15,86
22-09-2018,23:30,68
22-09-2018,23:45,82
23-09-2018,00:00,70
23-09-2018,00:15,78
23-09-2018,00:30,57
23-09-2018,00:45,56
23-09-2018,01:00,78
23-09-2018,01:15,74
23-09-2018,01:30,39
23-09-2018,01:45,54
23-09-2018,02:00,51
23-09-2018,02:15,38
23-09-2018,02:30,24
23-09-2018,02:45,25
23-09-2018,03:00,35
23-09-2018,03:15,34
23-09-2018,03:30,22
23-09-2018,03:45,32
23-09-2018,04:00,15
23-09-2018,04:15,22
23-09-2018,04:30,16
23-09-2018,04:45,25
23-09-2018,05:00,17
23-09-2018,05:15,10
23-09-2018,05:30,15
23-09-2018,05:45,18
23-09-2018,06:00,10
23-09-2018,06:15,11
23-09-2018,06:30,9
23-09-2018,06:45,25
23-09-2018,07:00,11
23-09-2018,07:15,12
23-09-2018,07:30,18
23-09-2018,07:45,31
23-09-2018,08:00,27
23-09-2018,08:15,30
23-09-2018,08:30,33
23-09-2018,08:45,35
23-09-2018,09:00,50
23-09-2018,09:15,49
23-09-2018,09:30,69
23-09-2018,09:45,70
23-09-2018,10:00,100
23-09-2018,10:15,91
23-09-2018,10:30,106
23-09-2018,10:45,124
23-09-2018,11:00,122
23-09-2018,11:15,110
23-09-2018,11:30,107
23-09-2018,11:45,110
23-09-2018,12:00,120
23-09-2018,12:15,116
23-09-2018,12:30,151
23-09-2018,12:45,137
23-09-2018,13:00,123
23-09-2018,13:15,138
23-09-2018,13:30,127
23-09-2018,13:45,121
23-09-2018,14:00,137
23-09-2018,14:15,84
23-09-2018,14:30,97
23-09-2018,14:45,107
23-09-2018,15:00,101
23-09-2018,15:15,129
23-09-2018,15:30,120
23-09-2018,15:45,117
23-09-2018,16:00,115
23-09-2018,16:15,132
23-09-2018,16:30,117
23-09-2018,16:45,106
23-09-2018,17:00,115
23-09-2018,17:15,101
23-09-2018,17:30,102
23-09-2018,17:45,116
23-09-2018,18:00,129
23-09-2018,18:15,95
23-09-2018,18:30,83
23-09-2018,18:45,97
23-09-2018,19:00,98
23-09-2018,19:15,98
23-09-2018,19:30,120
23-09-2018,19:45,114
23-09-2018,20:00,102
23-09-2018,20:15,120
23-09-2018,20:30,111
23-09-2018,20:45,98
23-09-2018,21:00,95
23-09-2018,21:15,94
23-09-2018,21:30,82
23-09-2018,21:45,90
23-09-2018,22:00,66
23-09-2018,22:15,67
23-09-2018,22:30,80
23-09-2018,22:45,67
23-09-2018,23:00,65
23-09-2018,23:15,59
23-09-2018,23:30,47
23-09-2018,23:45,38
24-09-2018,00:00,49
24-09-2018,00:15,31
24-09-2018,00:30,32
24-09-2018,00:45,25
24-09-2018,01:00,19
24-09-2018,01:15,15
24-09-2018,01:30,18
24-09-2018,01:45,15
24-09-2018,02:00,15
24-09-2018,02:15,9
24-09-2018,02:30,7
24-09-2018,02:45,6
24-09-2018,03:00,9
24-09-2018,03:15,6
24-09-2018,03:30,6
24-09-2018,03:45,6
24-09-2018,04:00,7
24-09-2018,04:15,3
24-09-2018,04:30,3
24-09-2018,04:45,5
24-09-2018,05:00,1
24-09-2018,05:15,8
24-09-2018,05:30,9
24-09-2018,05:45,6
24-09-2018,06:00,13
24-09-2018,06:15,5
24-09-2018,06:30,14
24-09-2018,06:45,26
24-09-2018,07:00,32
24-09-2018,07:15,34
24-09-2018,07:30,64
24-09-2018,07:45,88
24-09-2018,08:00,189
24-09-2018,08:15,191
24-09-2018,08:30,222
24-09-2018,08:45,184
24-09-2018,09:00,173
24-09-2018,09:15,176
24-09-2018,09:30,177
24-09-2018,09:45,174
24-09-2018,10:00,151
24-09-2018,10:15,134
24-09-2018,10:30,143
24-09-2018,10:45,132
24-09-2018,11:00,128
24-09-2018,11:15,122
24-09-2018,11:30,139
24-09-2018,11:45,142
24-09-2018,12:00,159
24-09-2018,12:15,146
24-09-2018,12:30,139
24-09-2018,12:45,125
24-09-2018,13:00,121
24-09-2018,13:15,120
24-09-2018,13:30,143
24-09-2018,13:45,142
24-09-2018,14:00,132
24-09-2018,14:15,157
24-09-2018,14:30,121
24-09-2018,14:45,144
24-09-2018,15:00,147
24-09-2018,15:15,149
24-09-2018,15:30,145
24-09-2018,15:45,144
24-09-2018,16:00,140
24-09-2018,16:15,157
24-09-2018,16:30,138
24-09-2018,16:45,166
24-09-2018,17:00,140
24-09-2018,17:15,156
24-09-2018,17:30,114
24-09-2018,17:45,162
24-09-2018,18:00,140
24-09-2018,18:15,141
24-09-2018,18:30,161
24-09-2018,18:45,116
24-09-2018,19:00,102
24-09-2018,19:15,146
24-09-2018,19:30,126
24-09-2018,19:45,132
24-09-2018,20:00,123
24-09-2018,20:15,130
24-09-2018,20:30,127
24-09-2018,20:45,109
24-09-2018,21:00,96
24-09-2018,21:15,100
24-09-2018,21:30,75
24-09-2018,21:45,81
24-09-2018,22:00,88
24-09-2018,22:15,75
24-09-2018,22:30,74
24-09-2018,22:45,55
24-09-2018,23:00,60
24-09-2018,23:15,65
24-09-2018,23:30,57
24-09-2018,23:45,52
25-09-2018,00:00,51
25-09-2018,00:15,61
25-09-2018,00:30,46
25-09-2018,00:45,31
25-09-2018,01:00,21
25-09-2018,01:15,26
25-09-2018,01:30,17
25-09-2018,01:45,19
25-09-2018,02:00,7
25-09-2018,02:15,15
25-09-2018,02:30,11
25-09-2018,02:45,9
25-09-2018,03:00,6
25-09-2018,03:15,5
25-09-2018,03:30,7
25-09-2018,03:45,4
25-09-2018,04:00,5
25-09-2018,04:15,4
25-09-2018,04:30,4
25-09-2018,04:45,9
25-09-2018,05:00,4
25-09-2018,05:15,11
25-09-2018,05:30,6
25-09-2018,05:45,10
25-09-2018,06:00,8
25-09-2018,06:15,15
25-09-2018,06:30,13
25-09-2018,06:45,27
25-09-2018,07:00,27
25-09-2018,07:15,43
25-09-2018,07:30,60
25-09-2018,07:45,95
25-09-2018,08:00,178
25-09-2018,08:15,201
25-09-2018,08:30,177
25-09-2018,08:45,195
25-09-2018,09:00,162
25-09-2018,09:15,201
25-09-2018,09:30,198
25-09-2018,09:45,180
25-09-2018,10:00,157
25-09-2018,10:15,129
25-09-2018,10:30,133
25-09-2018,10:45,137
25-09-2018,11:00,148
25-09-2018,11:15,130
25-09-2018,11:30,97
25-09-2018,11:45,167
25-09-2018,12:00,140
25-09-2018,12:15,142
25-09-2018,12:30,144
25-09-2018,12:45,156
25-09-2018,13:00,163
25-09-2018,13:15,144
25-09-2018,13:30,141
25-09-2018,13:45,145
25-09-2018,14:00,133
25-09-2018,14:15,145
25-09-2018,14:30,151
25-09-2018,14:45,153
25-09-2018,15:00,141
25-09-2018,15:15,146
25-09-2018,15:30,156
25-09-2018,15:45,167
25-09-2018,16:00,160
25-09-2018,16:15,136
25-09-2018,16:30,162
25-09-2018,16:45,147
25-09-2018,17:00,158
25-09-2018,17:15,129
25-09-2018,17:30,116
25-09-2018,17:45,140
25-09-2018,18:00,141
25-09-2018,18:15,123
25-09-2018,18:30,102
25-09-2018,18:45,97
25-09-2018,19:00,139
25-09-2018,19:15,134
25-09-2018,19:30,150
25-09-2018,19:45,149
25-09-2018,20:00,143
25-09-2018,20:15,133
25-09-2018,20:30,133
25-09-2018,20:45,130
25-09-2018,21:00,132
25-09-2018,21:15,111
25-09-2018,21:30,98
25-09-2018,21:45,90
25-09-2018,22:00,117
25-09-2018,22:15,87
25-09-2018,22:30,85
25-09-2018,22:45,84
25-09-2018,23:00,76
25-09-2018,23:15,91
25-09-2018,23:30,80
25-09-2018,23:45,77
26-09-2018,00:00,57
26-09-2018,00:15,57
26-09-2018,00:30,37
26-09-2018,00:45,28
26-09-2018,01:00,30
26-09-2018,01:15,25
26-09-2018,01:30,22
26-09-2018,01:45,22
26-09-2018,02:00,10
26-09-2018,02:15,12
26-09-2018,02:30,18
26-09-2018,02:45,4
26-09-2018,03:00,6
26-09-2018,03:15,7
26-09-2018,03:30,4
26-09-2018,03:45,6
26-09-2018,04:00,7
26-09-2018,04:15,4
26-09-2018,04:30,6
26-09-2018,04:45,9
26-09-2018,05:00,8
26-09-2018,05:15,6
26-09-2018,05:30,7
26-09-2018,05:45,10
26-09-2018,06:00,6
26-09-2018,06:15,15
26-09-2018,06:30,21
26-09-2018,06:45,21
26-09-2018,07:00,38
26-09-2018,07:15,42
26-09-2018,07:30,64
26-09-2018,07:45,112
26-09-2018,08:00,163
26-09-2018,08:15,207
26-09-2018,08:30,193
26-09-2018,08:45,217
26-09-2018,09:00,164
26-09-2018,09:15,170
26-09-2018,09:30,198
26-09-2018,09:45,174
26-09-2018,10:00,161
26-09-2018,10:15,144
26-09-2018,10:30,123
26-09-2018,10:45,153
26-09-2018,11:00,146
26-09-2018,11:15,152
26-09-2018,11:30,166
26-09-2018,11:45,143
26-09-2018,12:00,158
26-09-2018,12:15,143
26-09-2018,12:30,144
26-09-2018,12:45,162
26-09-2018,13:00,166
26-09-2018,13:15,148
26-09-2018,13:30,146
26-09-2018,13:45,153
26-09-2018,14:00,129
26-09-2018,14:15,168
26-09-2018,14:30,176
26-09-2018,14:45,205
26-09-2018,15:00,186
26-09-2018,15:15,153
26-09-2018,15:30,183
26-09-2018,15:45,165
26-09-2018,16:00,151
26-09-2018,16:15,155
26-09-2018,16:30,161
26-09-2018,16:45,146
26-09-2018,17:00,141
26-09-2018,17:15,170
26-09-2018,17:30,160
26-09-2018,17:45,146
26-09-2018,18:00,140
26-09-2018,18:15,135
26-09-2018,18:30,134
26-09-2018,18:45,183
26-09-2018,19:00,179
26-09-2018,19:15,176
26-09-2018,19:30,170
26-09-2018,19:45,167
26-09-2018,20:00,139
26-09-2018,20:15,154
26-09-2018,20:30,151
26-09-2018,20:45,132
26-09-2018,21:00,101
26-09-2018,21:15,118
26-09-2018,21:30,106
26-09-2018,21:45,115
26-09-2018,22:00,89
26-09-2018,22:15,91
26-09-2018,22:30,84
26-09-2018,22:45,82
26-09-2018,23:00,89
26-09-2018,23:15,98
26-09-2018,23:30,74
26-09-2018,23:45,72
27-09-2018,00:00,66
27-09-2018,00:15,59
27-09-2018,00:30,50
27-09-2018,00:45,42
27-09-2018,01:00,40
27-09-2018,01:15,35
27-09-2018,01:30,25
27-09-2018,01:45,17
27-09-2018,02:00,20
27-09-2018,02:15,14
27-09-2018,02:30,18
27-09-2018,02:45,8
27-09-2018,03:00,6
27-09-2018,03:15,7
27-09-2018,03:30,9
27-09-2018,03:45,7
27-09-2018,04:00,5
27-09-2018,04:15,5
27-09-2018,04:30,11
27-09-2018,04:45,7
27-09-2018,05:00,8
27-09-2018,05:15,7
27-09-2018,05:30,4
27-09-2018,05:45,5
27-09-2018,06:00,16
27-09-2018,06:15,13
27-09-2018,06:30,16
27-09-2018,06:45,29
27-09-2018,07:00,41
27-09-2018,07:15,43
27-09-2018,07:30,65
27-09-2018,07:45,104
27-09-2018,08:00,186
27-09-2018,08:15,184
27-09-2018,08:30,190
27-09-2018,08:45,177
27-09-2018,09:00,174
27-09-2018,09:15,173
27-09-2018,09:30,174
27-09-2018,09:45,169
27-09-2018,10:00,149
27-09-2018,10:15,158
27-09-2018,10:30,141
27-09-2018,10:45,132
27-09-2018,11:00,147
27-09-2018,11:15,142
27-09-2018,11:30,150
27-09-2018,11:45,121
27-09-2018,12:00,148
27-09-2018,12:15,163
27-09-2018,12:30,155
27-09-2018,12:45,151
27-09-2018,13:00,141
27-09-2018,13:15,146
27-09-2018,13:30,147
27-09-2018,13:45,135
27-09-2018,14:00,129
27-09-2018,14:15,149
27-09-2018,14:30,153
27-09-2018,14:45,162
27-09-2018,15:00,148
27-09-2018,15:15,158
27-09-2018,15:30,166
27-09-2018,15:45,157
27-09-2018,16:00,155
27-09-2018,16:15,165
27-09-2018,16:30,171
27-09-2018,16:45,86
27-09-2018,17:00,163
27-09-2018,17:15,136
27-09-2018,17:30,154
27-09-2018,17:45,127
27-09-2018,18:00,142
27-09-2018,18:15,148
27-09-2018,18:30,137
27-09-2018,18:45,142
27-09-2018,19:00,154
27-09-2018,19:15,152
27-09-2018,19:30,166
27-09-2018,19:45,153
27-09-2018,20:00,149
27-09-2018,20:15,158
27-09-2018,20:30,150
27-09-2018,20:45,130
27-09-2018,21:00,110
27-09-2018,21:15,90
27-09-2018,21:30,82
27-09-2018,21:45,102
27-09-2018,22:00,89
27-09-2018,22:15,78
27-09-2018,22:30,84
27-09-2018,22:45,78
27-09-2018,23:00,79
27-09-2018,23:15,67
27-09-2018,23:30,73
27-09-2018,23:45,82
28-09-2018,00:00,76
28-09-2018,00:15,64
28-09-2018,00:30,64
28-09-2018,00:45,59
28-09-2018,01:00,41
28-09-2018,01:15,34
28-09-2018,01:30,26
28-09-2018,01:45,28
28-09-2018,02:00,20
28-09-2018,02:15,18
28-09-2018,02:30,20
28-09-2018,02:45,20
28-09-2018,03:00,15
28-09-2018,03:15,12
28-09-2018,03:30,12
28-09-2018,03:45,8
28-09-2018,04:00,6
28-09-2018,04:15,10
28-09-2018,04:30,9
28-09-2018,04:45,7
28-09-2018,05:00,10
28-09-2018,05:15,5
28-09-2018,05:30,9
28-09-2018,05:45,14
28-09-2018,06:00,11
28-09-2018,06:15,16
28-09-2018,06:30,13
28-09-2018,06:45,16
28-09-2018,07:00,28
28-09-2018,07:15,31
28-09-2018,07:30,53
28-09-2018,07:45,111
28-09-2018,08:00,172
28-09-2018,08:15,149
28-09-2018,08:30,178
28-09-2018,08:45,189
28-09-2018,09:00,166
28-09-2018,09:15,161
28-09-2018,09:30,164
28-09-2018,09:45,171
28-09-2018,10:00,165
28-09-2018,10:15,133
28-09-2018,10:30,133
28-09-2018,10:45,157
28-09-2018,11:00,160
28-09-2018,11:15,156
28-09-2018,11:30,154
28-09-2018,11:45,150
28-09-2018,12:00,148
28-09-2018,12:15,152
28-09-2018,12:30,151
28-09-2018,12:45,161
28-09-2018,13:00,152
28-09-2018,13:15,178
28-09-2018,13:30,163
28-09-2018,13:45,170
28-09-2018,14:00,181
28-09-2018,14:15,159
28-09-2018,14:30,168
28-09-2018,14:45,146
28-09-2018,15:00,160
28-09-2018,15:15,166
28-09-2018,15:30,155
28-09-2018,15:45,184
28-09-2018,16:00,170
28-09-2018,16:15,155
28-09-2018,16:30,124
28-09-2018,16:45,160
28-09-2018,17:00,104
28-09-2018,17:15,139
28-09-2018,17:30,141
28-09-2018,17:45,114
28-09-2018,18:00,155
28-09-2018,18:15,134
28-09-2018,18:30,122
28-09-2018,18:45,136
28-09-2018,19:00,140
28-09-2018,19:15,152
28-09-2018,19:30,154
28-09-2018,19:45,145
28-09-2018,20:00,144
28-09-2018,20:15,149
28-09-2018,20:30,145
28-09-2018,20:45,157
28-09-2018,21:00,141
28-09-2018,21:15,144
28-09-2018,21:30,133
28-09-2018,21:45,111
28-09-2018,22:00,111
28-09-2018,22:15,101
28-09-2018,22:30,102
28-09-2018,22:45,93
28-09-2018,23:00,76
28-09-2018,23:15,80
28-09-2018,23:30,96
28-09-2018,23:45,77
29-09-2018,00:00,92
29-09-2018,00:15,89
29-09-2018,00:30,80
29-09-2018,00:45,56
29-09-2018,01:00,80
29-09-2018,01:15,72
29-09-2018,01:30,42
29-09-2018,01:45,58
29-09-2018,02:00,42
29-09-2018,02:15,44
29-09-2018,02:30,39
29-09-2018,02:45,45
29-09-2018,03:00,25
29-09-2018,03:15,27
29-09-2018,03:30,33
29-09-2018,03:45,25
29-09-2018,04:00,21
29-09-2018,04:15,19
29-09-2018,04:30,27
29-09-2018,04:45,26
29-09-2018,05:00,22
29-09-2018,05:15,19
29-09-2018,05:30,23
29-09-2018,05:45,20
29-09-2018,06:00,10
29-09-2018,06:15,17
29-09-2018,06:30,16
29-09-2018,06:45,16
29-09-2018,07:00,23
29-09-2018,07:15,31
29-09-2018,07:30,28
29-09-2018,07:45,34
29-09-2018,08:00,53
29-09-2018,08:15,62
29-09-2018,08:30,62
29-09-2018,08:45,73
29-09-2018,09:00,86
29-09-2018,09:15,89
29-09-2018,09:30,114
29-09-2018,09:45,112
29-09-2018,10:00,119
29-09-2018,10:15,159
29-09-2018,10:30,147
29-09-2018,10:45,177
29-09-2018,11:00,147
29-09-2018,11:15,161
29-09-2018,11:30,145
29-09-2018,11:45,180
29-09-2018,12:00,166
29-09-2018,12:15,172
29-09-2018,12:30,173
29-09-2018,12:45,157
29-09-2018,13:00,151
29-09-2018,13:15,144
29-09-2018,13:30,156
29-09-2018,13:45,174
29-09-2018,14:00,167
29-09-2018,14:15,134
29-09-2018,14:30,146
29-09-2018,14:45,175
29-09-2018,15:00,127
29-09-2018,15:15,157
29-09-2018,15:30,152
29-09-2018,15:45,153
29-09-2018,16:00,136
29-09-2018,16:15,133
29-09-2018,16:30,165
29-09-2018,16:45,147
29-09-2018,17:00,168
29-09-2018,17:15,150
29-09-2018,17:30,147
29-09-2018,17:45,141
29-09-2018,18:00,144
29-09-2018,18:15,140
29-09-2018,18:30,147
29-09-2018,18:45,130
29-09-2018,19:00,162
29-09-2018,19:15,154
29-09-2018,19:30,161
29-09-2018,19:45,150
29-09-2018,20:00,149
29-09-2018,20:15,163
29-09-2018,20:30,145
29-09-2018,20:45,155
29-09-2018,21:00,163
29-09-2018,21:15,108
29-09-2018,21:30,108
29-09-2018,21:45,98
29-09-2018,22:00,81
29-09-2018,22:15,84
29-09-2018,22:30,66
29-09-2018,22:45,69
29-09-2018,23:00,63
29-09-2018,23:15,74
29-09-2018,23:30,66
29-09-2018,23:45,86
30-09-2018,00:00,73
30-09-2018,00:15,65
30-09-2018,00:30,88
30-09-2018,00:45,70
30-09-2018,01:00,46
30-09-2018,01:15,53
30-09-2018,01:30,59
30-09-2018,01:45,49
30-09-2018,02:00,38
30-09-2018,02:15,31
30-09-2018,02:30,46
30-09-2018,02:45,37
30-09-2018,03:00,35
30-09-2018,03:15,24
30-09-2018,03:30,36
30-09-2018,03:45,27
30-09-2018,04:00,34
30-09-2018,04:15,30
30-09-2018,04:30,27
30-09-2018,04:45,27
30-09-2018,05:00,15
30-09-2018,05:15,22
30-09-2018,05:30,18
30-09-2018,05:45,22
30-09-2018,06:00,11
30-09-2018,06:15,19
30-09-2018,06:30,15
30-09-2018,06:45,17
30-09-2018,07:00,16
30-09-2018,07:15,11
30-09-2018,07:30,10
30-09-2018,07:45,29
30-09-2018,08:00,33
30-09-2018,08:15,26
30-09-2018,08:30,21
30-09-2018,08:45,33
30-09-2018,09:00,47
30-09-2018,09:15,52
30-09-2018,09:30,73
30-09-2018,09:45,76
30-09-2018,10:00,81
30-09-2018,10:15,92
30-09-2018,10:30,87
30-09-2018,10:45,101
30-09-2018,11:00,117
30-09-2018,11:15,108
30-09-2018,11:30,109
30-09-2018,11:45,122
30-09-2018,12:00,135
30-09-2018,12:15,134
30-09-2018,12:30,145
30-09-2018,12:45,164
30-09-2018,13:00,149
30-09-2018,13:15,130
30-09-2018,13:30,129
30-09-2018,13:45,127
30-09-2018,14:00,114
30-09-2018,14:15,105
30-09-2018,14:30,98
30-09-2018,14:45,103
30-09-2018,15:00,108
30-09-2018,15:15,119
30-09-2018,15:30,121
30-09-2018,15:45,140
30-09-2018,16:00,118
30-09-2018,16:15,153
30-09-2018,16:30,119
30-09-2018,16:45,108
30-09-2018,17:00,116
30-09-2018,17:15,137
30-09-2018,17:30,104
30-09-2018,17:45,131
30-09-2018,18:00,134
30-09-2018,18:15,133
30-09-2018,18:30,144
30-09-2018,18:45,132
30-09-2018,19:00,135
30-09-2018,19:15,137
30-09-2018,19:30,144
30-09-2018,19:45,139
30-09-2018,20:00,130
30-09-2018,20:15,132
30-09-2018,20:30,115
30-09-2018,20:45,118
30-09-2018,21:00,83
30-09-2018,21:15,74
30-09-2018,21:30,94
30-09-2018,21:45,82
30-09-2018,22:00,98
30-09-2018,22:15,78
30-09-2018,22:30,78
30-09-2018,22:45,90
30-09-2018,23:00,68
30-09-2018,23:15,57
30-09-2018,23:30,47
30-09-2018,23:45,40
01-10-2018,00:00,31
01-10-2018,00:15,34
01-10-2018,00:30,29
01-10-2018,00:45,27
01-10-2018,01:00,19
01-10-2018,01:15,23
01-10-2018,01:30,15
01-10-2018,01:45,22
01-10-2018,02:00,9
01-10-2018,02:15,10
01-10-2018,02:30,7
01-10-2018,02:45,3
01-10-2018,03:00,6
01-10-2018,03:15,6
01-10-2018,03:30,2
01-10-2018,03:45,7
01-10-2018,04:00,5
01-10-2018,04:15,3
01-10-2018,04:30,3
01-10-2018,04:45,9
01-10-2018,05:00,6
01-10-2018,05:15,6
01-10-2018,05:30,7
01-10-2018,05:45,8
01-10-2018,06:00,14
01-10-2018,06:15,11
01-10-2018,06:30,13
01-10-2018,06:45,23
01-10-2018,07:00,34
01-10-2018,07:15,32
01-10-2018,07:30,58
01-10-2018,07:45,121
01-10-2018,08:00,175
01-10-2018,08:15,181
01-10-2018,08:30,188
01-10-2018,08:45,177
01-10-2018,09:00,176
01-10-2018,09:15,157
01-10-2018,09:30,166
01-10-2018,09:45,158
01-10-2018,10:00,145
01-10-2018,10:15,149
01-10-2018,10:30,145
01-10-2018,10:45,135
01-10-2018,11:00,134
01-10-2018,11:15,136
01-10-2018,11:30,146
01-10-2018,11:45,153
01-10-2018,12:00,154
01-10-2018,12:15,157
01-10-2018,12:30,145
01-10-2018,12:45,160
01-10-2018,13:00,132
01-10-2018,13:15,136
01-10-2018,13:30,132
01-10-2018,13:45,154
01-10-2018,14:00,120
01-10-2018,14:15,128
01-10-2018,14:30,161
01-10-2018,14:45,152
01-10-2018,15:00,155
01-10-2018,15:15,149
01-10-2018,15:30,157
01-10-2018,15:45,151
01-10-2018,16:00,157
01-10-2018,16:15,178
01-10-2018,16:30,181
01-10-2018,16:45,160
01-10-2018,17:00,157
01-10-2018,17:15,142
01-10-2018,17:30,143
01-10-2018,17:45,109
01-10-2018,18:00,110
01-10-2018,18:15,97
01-10-2018,18:30,98
01-10-2018,18:45,127
01-10-2018,19:00,125
01-10-2018,19:15,130
01-10-2018,19:30,146
01-10-2018,19:45,123
01-10-2018,20:00,139
01-10-2018,20:15,132
01-10-2018,20:30,112
01-10-2018,20:45,125
01-10-2018,21:00,117
01-10-2018,21:15,89
01-10-2018,21:30,86
01-10-2018,21:45,95
01-10-2018,22:00,94
01-10-2018,22:15,68
01-10-2018,22:30,77
01-10-2018,22:45,59
01-10-2018,23:00,51
01-10-2018,23:15,80
01-10-2018,23:30,62
01-10-2018,23:45,54
02-10-2018,00:00,46
02-10-2018,00:15,49
02-10-2018,00:30,50
02-10-2018,00:45,23
02-10-2018,01:00,41
02-10-2018,01:15,22
02-10-2018,01:30,20
02-10-2018,01:45,15
02-10-2018,02:00,19
02-10-2018,02:15,10
02-10-2018,02:30,11
02-10-2018,02:45,10
02-10-2018,03:00,8
02-10-2018,03:15,2
02-10-2018,03:30,5
02-10-2018,03:45,4
02-10-2018,04:00,8
02-10-2018,04:15,3
02-10-2018,04:30,6
02-10-2018,04:45,4
02-10-2018,05:00,7
02-10-2018,05:15,8
02-10-2018,05:30,2
02-10-2018,05:45,7
02-10-2018,06:00,12
02-10-2018,06:15,16
02-10-2018,06:30,16
02-10-2018,06:45,28
02-10-2018,07:00,31
02-10-2018,07:15,44
02-10-2018,07:30,70
02-10-2018,07:45,117
02-10-2018,08:00,189
02-10-2018,08:15,196
02-10-2018,08:30,173
02-10-2018,08:45,162
02-10-2018,09:00,177
02-10-2018,09:15,151
02-10-2018,09:30,172
02-10-2018,09:45,173
02-10-2018,10:00,163
02-10-2018,10:15,126
02-10-2018,10:30,134
02-10-2018,10:45,128
02-10-2018,11:00,129
02-10-2018,11:15,125
02-10-2018,11:30,140
02-10-2018,11:45,156
02-10-2018,12:00,147
02-10-2018,12:15,162
02-10-2018,12:30,154
02-10-2018,12:45,160
02-10-2018,13:00,157
02-10-2018,13:15,154
02-10-2018,13:30,157
02-10-2018,13:45,162
02-10-2018,14:00,150
02-10-2018,14:15,142
02-10-2018,14:30,149
02-10-2018,14:45,150
02-10-2018,15:00,132
02-10-2018,15:15,136
02-10-2018,15:30,144
02-10-2018,15:45,157
02-10-2018,16:00,144
02-10-2018,16:15,153
02-10-2018,16:30,157
02-10-2018,16:45,136
02-10-2018,17:00,155
02-10-2018,17:15,168
02-10-2018,17:30,170
02-10-2018,17:45,138
02-10-2018,18:00,171
02-10-2018,18:15,136
02-10-2018,18:30,131
02-10-2018,18:45,140
02-10-2018,19:00,136
02-10-2018,19:15,133
02-10-2018,19:30,155
02-10-2018,19:45,139
02-10-2018,20:00,132
02-10-2018,20:15,120
02-10-2018,20:30,128
02-10-2018,20:45,125
02-10-2018,21:00,91
02-10-2018,21:15,70
02-10-2018,21:30,95
02-10-2018,21:45,91
02-10-2018,22:00,72
02-10-2018,22:15,91
02-10-2018,22:30,76
02-10-2018,22:45,92
02-10-2018,23:00,66
02-10-2018,23:15,65
02-10-2018,23:30,67
02-10-2018,23:45,69
03-10-2018,00:00,71
03-10-2018,00:15,44
03-10-2018,00:30,50
03-10-2018,00:45,42
03-10-2018,01:00,26
03-10-2018,01:15,30
03-10-2018,01:30,30
03-10-2018,01:45,25
03-10-2018,02:00,25
03-10-2018,02:15,15
03-10-2018,02:30,17
03-10-2018,02:45,12
03-10-2018,03:00,11
03-10-2018,03:15,7
03-10-2018,03:30,6
03-10-2018,03:45,11
03-10-2018,04:00,6
03-10-2018,04:15,13
03-10-2018,04:30,9
03-10-2018,04:45,6
03-10-2018,05:00,5
03-10-2018,05:15,8
03-10-2018,05:30,6
03-10-2018,05:45,17
03-10-2018,06:00,17
03-10-2018,06:15,11
03-10-2018,06:30,18
03-10-2018,06:45,26
03-10-2018,07:00,19
03-10-2018,07:15,40
03-10-2018,07:30,61
03-10-2018,07:45,124
03-10-2018,08:00,161
03-10-2018,08:15,185
03-10-2018,08:30,169
03-10-2018,08:45,177
03-10-2018,09:00,152
03-10-2018,09:15,164
03-10-2018,09:30,164
03-10-2018,09:45,159
03-10-2018,10:00,157
03-10-2018,10:15,143
03-10-2018,10:30,151
03-10-2018,10:45,139
03-10-2018,11:00,143
03-10-2018,11:15,134
03-10-2018,11:30,150
03-10-2018,11:45,146
03-10-2018,12:00,163
03-10-2018,12:15,166
03-10-2018,12:30,149
03-10-2018,12:45,165
03-10-2018,13:00,146
03-10-2018,13:15,164
03-10-2018,13:30,124
03-10-2018,13:45,167
03-10-2018,14:00,136
03-10-2018,14:15,138
03-10-2018,14:30,163
03-10-2018,14:45,168
03-10-2018,15:00,160
03-10-2018,15:15,156
03-10-2018,15:30,158
03-10-2018,15:45,142
03-10-2018,16:00,152
03-10-2018,16:15,162
03-10-2018,16:30,171
03-10-2018,16:45,182
03-10-2018,17:00,164
03-10-2018,17:15,157
03-10-2018,17:30,144
03-10-2018,17:45,84
03-10-2018,18:00,103
03-10-2018,18:15,117
03-10-2018,18:30,113
03-10-2018,18:45,96
03-10-2018,19:00,129
03-10-2018,19:15,168
03-10-2018,19:30,138
03-10-2018,19:45,139
03-10-2018,20:00,142
03-10-2018,20:15,137
03-10-2018,20:30,120
03-10-2018,20:45,146
03-10-2018,21:00,134
03-10-2018,21:15,107
03-10-2018,21:30,106
03-10-2018,21:45,95
03-10-2018,22:00,92
03-10-2018,22:15,78
03-10-2018,22:30,62
03-10-2018,22:45,90
03-10-2018,23:00,87
03-10-2018,23:15,78
03-10-2018,23:30,62
03-10-2018,23:45,61
04-10-2018,00:00,79
04-10-2018,00:15,57
04-10-2018,00:30,42
04-10-2018,00:45,42
04-10-2018,01:00,20
04-10-2018,01:15,21
04-10-2018,01:30,33
04-10-2018,01:45,22
04-10-2018,02:00,12
04-10-2018,02:15,22
04-10-2018,02:30,12
04-10-2018,02:45,12
04-10-2018,03:00,6
04-10-2018,03:15,7
04-10-2018,03:30,7
04-10-2018,03:45,10
04-10-2018,04:00,7
04-10-2018,04:15,3
04-10-2018,04:30,4
04-10-2018,04:45,2
04-10-2018,05:00,4
04-10-2018,05:15,4
04-10-2018,05:30,10
04-10-2018,05:45,15
04-10-2018,06:00,11
04-10-2018,06:15,14
04-10-2018,06:30,15
04-10-2018,06:45,26
04-10-2018,07:00,27
04-10-2018,07:15,38
04-10-2018,07:30,57
04-10-2018,07:45,115
04-10-2018,08:00,181
04-10-2018,08:15,174
04-10-2018,08:30,163
04-10-2018,08:45,195
04-10-2018,09:00,148
04-10-2018,09:15,167
04-10-2018,09:30,139
04-10-2018,09:45,154
04-10-2018,10:00,168
04-10-2018,10:15,149
04-10-2018,10:30,147
04-10-2018,10:45,140
04-10-2018,11:00,142
04-10-2018,11:15,156
04-10-2018,11:30,141
04-10-2018,11:45,147
04-10-2018,12:00,136
04-10-2018,12:15,111
