day,time,count
22-09-2018,00:15,101
22-09-2018,00:30,103
22-09-2018,00:45,109
22-09-2018,01:00,88
22-09-2018,01:15,81
22-09-2018,01:30,73
22-09-2018,01:45,64
22-09-2018,02:00,72
22-09-2018,02:15,51
22-09-2018,02:30,55
22-09-2018,02:45,53
22-09-2018,03:00,58
22-09-2018,03:15,29
22-09-2018,03:30,34
22-09-2018,03:45,58
22-09-2018,04:00,33
22-09-2018,04:15,24
22-09-2018,04:30,27
22-09-2018,04:45,17
22-09-2018,05:00,22
22-09-2018,05:15,10
22-09-2018,05:30,18
22-09-2018,05:45,21
22-09-2018,06:00,16
22-09-2018,06:15,15
22-09-2018,06:30,17
22-09-2018,06:45,20
22-09-2018,07:00,16
22-09-2018,07:15,18
22-09-2018,07:30,23
22-09-2018,07:45,35
22-09-2018,08:00,37
22-09-2018,08:15,49
22-09-2018,08:30,51
22-09-2018,08:45,60
22-09-2018,09:00,67
22-09-2018,09:15,85
22-09-2018,09:30,91
22-09-2018,09:45,89
22-09-2018,10:00,133
22-09-2018,10:15,135
22-09-2018,10:30,129
22-09-2018,10:45,132
22-09-2018,11:00,167
22-09-2018,11:15,158
22-09-2018,11:30,148
22-09-2018,11:45,155
22-09-2018,12:00,154
22-09-2018,12:15,164
22-09-2018,12:30,184
22-09-2018,12:45,162
22-09-2018,13:00,183
22-09-2018,13:15,161
22-09-2018,13:30,178
22-09-2018,13:45,163
22-09-2018,14:00,123
22-09-2018,14:15,139
22-09-2018,14:30,148
22-09-2018,14:45,118
22-09-2018,15:00,134
22-09-2018,15:15,154
22-09-2018,15:30,132
22-09-2018,15:45,139
22-09-2018,16:00,119
22-09-2018,16:15,163
22-09-2018,16:30,118
22-09-2018,16:45,107
22-09-2018,17:00,164
22-09-2018,17:15,152
22-09-2018,17:30,167
22-09-2018,17:45,124
22-09-2018,18:00,147
22-09-2018,18:15,175
22-09-2018,18:30,141
22-09-2018,18:45,156
22-09-2018,19:00,150
22-09-2018,19:15,129
22-09-2018,19:30,124
22-09-2018,19:45,128
22-09-2018,20:00,141
22-09-2018,20:15,117
22-09-2018,20:30,117
22-09-2018,20:45,128
22-09-2018,21:00,90
22-09-2018,21:15,87
22-09-2018,21:30,71
22-09-2018,21:45,76
22-09-2018,22:00,66
22-09-2018,22:15,70
22-09-2018,22:30,104
22-09-2018,22:45,74
22-09-2018,23:00,95
22-09-2018,23:15,93
22-09-2018,23:30,87
22-09-2018,23:45,122
23-09-2018,00:00,92
23-09-2018,00:15,115
23-09-2018,00:30,87
23-09-2018,00:45,91
23-09-2018,01:00,114
23-09-2018,01:15,84
23-09-2018,01:30,57
23-09-2018,01:45,83
23-09-2018,02:00,69
23-09-2018,02:15,65
23-09-2018,02:30,53
23-09-2018,02:45,61
23-09-2018,03:00,51
23-09-2018,03:15,52
23-09-2018,03:30,56
23-09-2018,03:45,54
23-09-2018,04:00,35
23-09-2018,04:15,33
23-09-2018,04:30,23
23-09-2018,04:45,18
23-09-2018,05:00,25
23-09-2018,05:15,22
23-09-2018,05:30,14
23-09-2018,05:45,18
23-09-2018,06:00,15
23-09-2018,06:15,13
23-09-2018,06:30,14
23-09-2018,06:45,10
23-09-2018,07:00,22
23-09-2018,07:15,24
23-09-2018,07:30,15
23-09-2018,07:45,21
23-09-2018,08:00,34
23-09-2018,08:15,24
23-09-2018,08:30,31
23-09-2018,08:45,33
23-09-2018,09:00,53
23-09-2018,09:15,46
23-09-2018,09:30,60
23-09-2018,09:45,62
23-09-2018,10:00,56
23-09-2018,10:15,89
23-09-2018,10:30,80
23-09-2018,10:45,98
23-09-2018,11:00,93
23-09-2018,11:15,104
23-09-2018,11:30,121
23-09-2018,11:45,104
23-09-2018,12:00,122
23-09-2018,12:15,121
23-09-2018,12:30,138
23-09-2018,12:45,135
23-09-2018,13:00,151
23-09-2018,13:15,143
23-09-2018,13:30,134
23-09-2018,13:45,107
23-09-2018,14:00,92
23-09-2018,14:15,107
23-09-2018,14:30,107
23-09-2018,14:45,98
23-09-2018,15:00,99
23-09-2018,15:15,103
23-09-2018,15:30,107
23-09-2018,15:45,103
23-09-2018,16:00,119
23-09-2018,16:15,123
23-09-2018,16:30,112
23-09-2018,16:45,108
23-09-2018,17:00,100
23-09-2018,17:15,111
23-09-2018,17:30,99
23-09-2018,17:45,117
23-09-2018,18:00,111
23-09-2018,18:15,107
23-09-2018,18:30,123
23-09-2018,18:45,109
23-09-2018,19:00,99
23-09-2018,19:15,102
23-09-2018,19:30,129
23-09-2018,19:45,100
23-09-2018,20:00,94
23-09-2018,20:15,102
23-09-2018,20:30,82
23-09-2018,20:45,75
23-09-2018,21:00,99
23-09-2018,21:15,78
23-09-2018,21:30,65
23-09-2018,21:45,85
23-09-2018,22:00,65
23-09-2018,22:15,62
23-09-2018,22:30,57
23-09-2018,22:45,75
23-09-2018,23:00,53
23-09-2018,23:15,60
23-09-2018,23:30,48
23-09-2018,23:45,53
24-09-2018,00:00,62
24-09-2018,00:15,54
24-09-2018,00:30,46
24-09-2018,00:45,38
24-09-2018,01:00,36
24-09-2018,01:15,28
24-09-2018,01:30,24
24-09-2018,01:45,29
24-09-2018,02:00,13
24-09-2018,02:15,7
24-09-2018,02:30,22
24-09-2018,02:45,12
24-09-2018,03:00,12
24-09-2018,03:15,11
24-09-2018,03:30,5
24-09-2018,03:45,4
24-09-2018,04:00,6
24-09-2018,04:15,4
24-09-2018,04:30,5
24-09-2018,04:45,3
24-09-2018,05:00,5
24-09-2018,05:15,5
24-09-2018,05:30,4
24-09-2018,05:45,6
24-09-2018,06:00,11
24-09-2018,06:15,14
24-09-2018,06:30,10
24-09-2018,06:45,14
24-09-2018,07:00,23
24-09-2018,07:15,31
24-09-2018,07:30,46
24-09-2018,07:45,74
24-09-2018,08:00,139
24-09-2018,08:15,155
24-09-2018,08:30,147
24-09-2018,08:45,175
24-09-2018,09:00,143
24-09-2018,09:15,153
24-09-2018,09:30,132
24-09-2018,09:45,129
24-09-2018,10:00,130
24-09-2018,10:15,126
24-09-2018,10:30,141
24-09-2018,10:45,124
24-09-2018,11:00,137
24-09-2018,11:15,157
24-09-2018,11:30,146
24-09-2018,11:45,141
24-09-2018,12:00,160
24-09-2018,12:15,159
24-09-2018,12:30,192
24-09-2018,12:45,176
24-09-2018,13:00,180
24-09-2018,13:15,176
24-09-2018,13:30,177
24-09-2018,13:45,165
24-09-2018,14:00,129
24-09-2018,14:15,167
24-09-2018,14:30,179
24-09-2018,14:45,178
24-09-2018,15:00,158
24-09-2018,15:15,186
24-09-2018,15:30,181
24-09-2018,15:45,162
24-09-2018,16:00,204
24-09-2018,16:15,194
24-09-2018,16:30,211
24-09-2018,16:45,234
24-09-2018,17:00,229
24-09-2018,17:15,210
24-09-2018,17:30,165
24-09-2018,17:45,219
24-09-2018,18:00,212
24-09-2018,18:15,202
24-09-2018,18:30,159
24-09-2018,18:45,145
24-09-2018,19:00,134
24-09-2018,19:15,174
24-09-2018,19:30,119
24-09-2018,19:45,150
24-09-2018,20:00,180
24-09-2018,20:15,173
24-09-2018,20:30,188
24-09-2018,20:45,145
24-09-2018,21:00,122
24-09-2018,21:15,131
24-09-2018,21:30,103
24-09-2018,21:45,95
24-09-2018,22:00,115
24-09-2018,22:15,82
24-09-2018,22:30,88
24-09-2018,22:45,91
24-09-2018,23:00,81
24-09-2018,23:15,95
24-09-2018,23:30,71
24-09-2018,23:45,78
25-09-2018,00:00,80
25-09-2018,00:15,44
25-09-2018,00:30,55
25-09-2018,00:45,40
25-09-2018,01:00,38
25-09-2018,01:15,32
25-09-2018,01:30,16
25-09-2018,01:45,21
25-09-2018,02:00,13
25-09-2018,02:15,13
25-09-2018,02:30,14
25-09-2018,02:45,12
25-09-2018,03:00,10
25-09-2018,03:15,5
25-09-2018,03:30,4
25-09-2018,03:45,0
25-09-2018,04:00,4
25-09-2018,04:15,3
25-09-2018,04:30,7
25-09-2018,04:45,0
25-09-2018,05:00,4
25-09-2018,05:15,3
25-09-2018,05:30,3
25-09-2018,05:45,6
25-09-2018,06:00,8
25-09-2018,06:15,6
25-09-2018,06:30,7
25-09-2018,06:45,25
25-09-2018,07:00,31
25-09-2018,07:15,37
25-09-2018,07:30,39
25-09-2018,07:45,104
25-09-2018,08:00,160
25-09-2018,08:15,155
25-09-2018,08:30,164
25-09-2018,08:45,145
25-09-2018,09:00,142
25-09-2018,09:15,146
25-09-2018,09:30,129
25-09-2018,09:45,156
25-09-2018,10:00,126
25-09-2018,10:15,136
25-09-2018,10:30,131
25-09-2018,10:45,132
25-09-2018,11:00,138
25-09-2018,11:15,139
25-09-2018,11:30,150
25-09-2018,11:45,176
25-09-2018,12:00,170
25-09-2018,12:15,170
25-09-2018,12:30,157
25-09-2018,12:45,183
25-09-2018,13:00,207
25-09-2018,13:15,191
25-09-2018,13:30,180
25-09-2018,13:45,176
25-09-2018,14:00,148
25-09-2018,14:15,171
25-09-2018,14:30,178
25-09-2018,14:45,181
25-09-2018,15:00,166
25-09-2018,15:15,194
25-09-2018,15:30,182
25-09-2018,15:45,179
25-09-2018,16:00,168
25-09-2018,16:15,214
25-09-2018,16:30,180
25-09-2018,16:45,197
25-09-2018,17:00,218
25-09-2018,17:15,200
25-09-2018,17:30,180
25-09-2018,17:45,221
25-09-2018,18:00,224
25-09-2018,18:15,202
25-09-2018,18:30,153
25-09-2018,18:45,129
25-09-2018,19:00,180
25-09-2018,19:15,188
25-09-2018,19:30,205
25-09-2018,19:45,188
25-09-2018,20:00,219
25-09-2018,20:15,170
25-09-2018,20:30,184
25-09-2018,20:45,142
25-09-2018,21:00,161
25-09-2018,21:15,121
25-09-2018,21:30,135
25-09-2018,21:45,96
25-09-2018,22:00,88
25-09-2018,22:15,116
25-09-2018,22:30,97
25-09-2018,22:45,82
25-09-2018,23:00,87
25-09-2018,23:15,94
25-09-2018,23:30,78
25-09-2018,23:45,72
26-09-2018,00:00,74
26-09-2018,00:15,86
26-09-2018,00:30,70
26-09-2018,00:45,58
26-09-2018,01:00,32
26-09-2018,01:15,51
26-09-2018,01:30,31
26-09-2018,01:45,25
26-09-2018,02:00,19
26-09-2018,02:15,22
26-09-2018,02:30,18
26-09-2018,02:45,18
26-09-2018,03:00,13
26-09-2018,03:15,8
26-09-2018,03:30,7
26-09-2018,03:45,9
26-09-2018,04:00,9
26-09-2018,04:15,4
26-09-2018,04:30,7
26-09-2018,04:45,6
26-09-2018,05:00,8
26-09-2018,05:15,9
26-09-2018,05:30,2
26-09-2018,05:45,3
26-09-2018,06:00,7
26-09-2018,06:15,5
26-09-2018,06:30,8
26-09-2018,06:45,9
26-09-2018,07:00,26
26-09-2018,07:15,33
26-09-2018,07:30,50
26-09-2018,07:45,90
26-09-2018,08:00,165
26-09-2018,08:15,158
26-09-2018,08:30,153
26-09-2018,08:45,165
26-09-2018,09:00,165
26-09-2018,09:15,159
26-09-2018,09:30,112
26-09-2018,09:45,116
26-09-2018,10:00,107
26-09-2018,10:15,98
26-09-2018,10:30,131
26-09-2018,10:45,120
26-09-2018,11:00,128
26-09-2018,11:15,140
26-09-2018,11:30,157
26-09-2018,11:45,166
26-09-2018,12:00,167
26-09-2018,12:15,180
26-09-2018,12:30,186
26-09-2018,12:45,183
26-09-2018,13:00,192
26-09-2018,13:15,187
26-09-2018,13:30,178
26-09-2018,13:45,176
26-09-2018,14:00,187
26-09-2018,14:15,149
26-09-2018,14:30,123
26-09-2018,14:45,117
26-09-2018,15:00,198
26-09-2018,15:15,189
26-09-2018,15:30,169
26-09-2018,15:45,180
26-09-2018,16:00,198
26-09-2018,16:15,197
26-09-2018,16:30,182
26-09-2018,16:45,213
26-09-2018,17:00,205
26-09-2018,17:15,188
26-09-2018,17:30,173
26-09-2018,17:45,207
26-09-2018,18:00,235
26-09-2018,18:15,231
26-09-2018,18:30,183
26-09-2018,18:45,140
26-09-2018,19:00,161
26-09-2018,19:15,215
26-09-2018,19:30,208
26-09-2018,19:45,199
26-09-2018,20:00,219
26-09-2018,20:15,193
26-09-2018,20:30,213
26-09-2018,20:45,162
26-09-2018,21:00,177
26-09-2018,21:15,168
26-09-2018,21:30,156
26-09-2018,21:45,110
26-09-2018,22:00,122
26-09-2018,22:15,123
26-09-2018,22:30,108
26-09-2018,22:45,116
26-09-2018,23:00,106
26-09-2018,23:15,118
26-09-2018,23:30,98
26-09-2018,23:45,115
27-09-2018,00:00,94
27-09-2018,00:15,92
27-09-2018,00:30,67
27-09-2018,00:45,66
27-09-2018,01:00,59
27-09-2018,01:15,35
27-09-2018,01:30,20
27-09-2018,01:45,32
27-09-2018,02:00,19
27-09-2018,02:15,22
27-09-2018,02:30,18
27-09-2018,02:45,19
27-09-2018,03:00,16
27-09-2018,03:15,11
27-09-2018,03:30,6
27-09-2018,03:45,9
27-09-2018,04:00,4
27-09-2018,04:15,5
27-09-2018,04:30,13
27-09-2018,04:45,5
27-09-2018,05:00,2
27-09-2018,05:15,6
27-09-2018,05:30,1
27-09-2018,05:45,2
27-09-2018,06:00,11
27-09-2018,06:15,13
27-09-2018,06:30,11
27-09-2018,06:45,19
27-09-2018,07:00,29
27-09-2018,07:15,33
27-09-2018,07:30,48
27-09-2018,07:45,88
27-09-2018,08:00,154
27-09-2018,08:15,159
27-09-2018,08:30,168
27-09-2018,08:45,171
27-09-2018,09:00,143
27-09-2018,09:15,147
27-09-2018,09:30,130
27-09-2018,09:45,124
27-09-2018,10:00,110
27-09-2018,10:15,114
27-09-2018,10:30,132
27-09-2018,10:45,130
27-09-2018,11:00,130
27-09-2018,11:15,145
27-09-2018,11:30,135
27-09-2018,11:45,152
27-09-2018,12:00,153
27-09-2018,12:15,176
27-09-2018,12:30,188
27-09-2018,12:45,175
27-09-2018,13:00,191
27-09-2018,13:15,174
27-09-2018,13:30,174
27-09-2018,13:45,158
27-09-2018,14:00,137
27-09-2018,14:15,173
27-09-2018,14:30,175
27-09-2018,14:45,183
27-09-2018,15:00,177
27-09-2018,15:15,178
27-09-2018,15:30,154
27-09-2018,15:45,197
27-09-2018,16:00,185
27-09-2018,16:15,199
27-09-2018,16:30,211
27-09-2018,16:45,90
27-09-2018,17:00,152
27-09-2018,17:15,133
27-09-2018,17:30,192
27-09-2018,17:45,159
27-09-2018,18:00,146
27-09-2018,18:15,174
27-09-2018,18:30,149
27-09-2018,18:45,182
27-09-2018,19:00,210
27-09-2018,19:15,199
27-09-2018,19:30,191
27-09-2018,19:45,221
27-09-2018,20:00,231
27-09-2018,20:15,198
27-09-2018,20:30,202
27-09-2018,20:45,144
27-09-2018,21:00,168
27-09-2018,21:15,116
27-09-2018,21:30,143
27-09-2018,21:45,115
27-09-2018,22:00,114
27-09-2018,22:15,96
27-09-2018,22:30,110
27-09-2018,22:45,118
27-09-2018,23:00,113
27-09-2018,23:15,122
27-09-2018,23:30,131
27-09-2018,23:45,126
28-09-2018,00:00,140
28-09-2018,00:15,144
28-09-2018,00:30,94
28-09-2018,00:45,103
28-09-2018,01:00,74
28-09-2018,01:15,48
28-09-2018,01:30,60
28-09-2018,01:45,48
28-09-2018,02:00,28
28-09-2018,02:15,33
28-09-2018,02:30,29
28-09-2018,02:45,28
28-09-2018,03:00,19
28-09-2018,03:15,24
28-09-2018,03:30,15
28-09-2018,03:45,10
28-09-2018,04:00,14
28-09-2018,04:15,3
28-09-2018,04:30,7
28-09-2018,04:45,6
28-09-2018,05:00,6
28-09-2018,05:15,8
28-09-2018,05:30,7
28-09-2018,05:45,10
28-09-2018,06:00,6
28-09-2018,06:15,10
28-09-2018,06:30,12
28-09-2018,06:45,15
28-09-2018,07:00,28
28-09-2018,07:15,35
28-09-2018,07:30,53
28-09-2018,07:45,93
28-09-2018,08:00,92
28-09-2018,08:15,132
28-09-2018,08:30,163
28-09-2018,08:45,188
28-09-2018,09:00,145
28-09-2018,09:15,122
28-09-2018,09:30,130
28-09-2018,09:45,141
28-09-2018,10:00,133
28-09-2018,10:15,139
28-09-2018,10:30,153
28-09-2018,10:45,160
28-09-2018,11:00,124
28-09-2018,11:15,168
28-09-2018,11:30,168
28-09-2018,11:45,157
28-09-2018,12:00,173
28-09-2018,12:15,179
28-09-2018,12:30,179
28-09-2018,12:45,176
28-09-2018,13:00,191
28-09-2018,13:15,176
28-09-2018,13:30,182
28-09-2018,13:45,169
28-09-2018,14:00,167
28-09-2018,14:15,192
28-09-2018,14:30,180
28-09-2018,14:45,204
28-09-2018,15:00,201
28-09-2018,15:15,190
28-09-2018,15:30,194
28-09-2018,15:45,212
28-09-2018,16:00,207
28-09-2018,16:15,211
28-09-2018,16:30,197
28-09-2018,16:45,168
28-09-2018,17:00,187
28-09-2018,17:15,204
28-09-2018,17:30,155
28-09-2018,17:45,159
28-09-2018,18:00,163
28-09-2018,18:15,180
28-09-2018,18:30,164
28-09-2018,18:45,184
28-09-2018,19:00,192
28-09-2018,19:15,202
28-09-2018,19:30,215
28-09-2018,19:45,193
28-09-2018,20:00,192
28-09-2018,20:15,179
28-09-2018,20:30,161
28-09-2018,20:45,144
28-09-2018,21:00,139
28-09-2018,21:15,134
28-09-2018,21:30,137
28-09-2018,21:45,116
28-09-2018,22:00,129
28-09-2018,22:15,125
28-09-2018,22:30,123
28-09-2018,22:45,119
28-09-2018,23:00,118
28-09-2018,23:15,136
28-09-2018,23:30,118
28-09-2018,23:45,112
29-09-2018,00:00,157
29-09-2018,00:15,120
29-09-2018,00:30,127
29-09-2018,00:45,109
29-09-2018,01:00,95
29-09-2018,01:15,97
29-09-2018,01:30,103
29-09-2018,01:45,82
29-09-2018,02:00,47
29-09-2018,02:15,62
29-09-2018,02:30,41
29-09-2018,02:45,52
29-09-2018,03:00,44
29-09-2018,03:15,38
29-09-2018,03:30,62
29-09-2018,03:45,43
29-09-2018,04:00,32
29-09-2018,04:15,20
29-09-2018,04:30,26
29-09-2018,04:45,33
29-09-2018,05:00,17
29-09-2018,05:15,21
29-09-2018,05:30,15
29-09-2018,05:45,16
29-09-2018,06:00,14
29-09-2018,06:15,21
29-09-2018,06:30,33
29-09-2018,06:45,28
29-09-2018,07:00,23
29-09-2018,07:15,27
29-09-2018,07:30,29
29-09-2018,07:45,36
29-09-2018,08:00,39
29-09-2018,08:15,52
29-09-2018,08:30,71
29-09-2018,08:45,65
29-09-2018,09:00,75
29-09-2018,09:15,109
29-09-2018,09:30,96
29-09-2018,09:45,107
29-09-2018,10:00,97
29-09-2018,10:15,151
29-09-2018,10:30,132
29-09-2018,10:45,159
29-09-2018,11:00,162
29-09-2018,11:15,163
29-09-2018,11:30,150
29-09-2018,11:45,174
29-09-2018,12:00,169
29-09-2018,12:15,173
29-09-2018,12:30,197
29-09-2018,12:45,178
29-09-2018,13:00,185
29-09-2018,13:15,188
29-09-2018,13:30,205
29-09-2018,13:45,171
29-09-2018,14:00,166
29-09-2018,14:15,150
29-09-2018,14:30,156
29-09-2018,14:45,150
29-09-2018,15:00,159
29-09-2018,15:15,148
29-09-2018,15:30,142
29-09-2018,15:45,162
29-09-2018,16:00,130
29-09-2018,16:15,168
29-09-2018,16:30,147
29-09-2018,16:45,146
29-09-2018,17:00,145
29-09-2018,17:15,174
29-09-2018,17:30,173
29-09-2018,17:45,174
29-09-2018,18:00,186
29-09-2018,18:15,178
29-09-2018,18:30,196
29-09-2018,18:45,187
29-09-2018,19:00,173
29-09-2018,19:15,150
29-09-2018,19:30,154
29-09-2018,19:45,138
29-09-2018,20:00,151
29-09-2018,20:15,164
29-09-2018,20:30,147
29-09-2018,20:45,151
29-09-2018,21:00,124
29-09-2018,21:15,86
29-09-2018,21:30,94
29-09-2018,21:45,78
29-09-2018,22:00,102
29-09-2018,22:15,82
29-09-2018,22:30,75
29-09-2018,22:45,69
29-09-2018,23:00,61
29-09-2018,23:15,107
29-09-2018,23:30,106
29-09-2018,23:45,124
30-09-2018,00:00,129
30-09-2018,00:15,121
30-09-2018,00:30,91
30-09-2018,00:45,118
30-09-2018,01:00,80
30-09-2018,01:15,74
30-09-2018,01:30,75
30-09-2018,01:45,75
30-09-2018,02:00,61
30-09-2018,02:15,72
30-09-2018,02:30,55
30-09-2018,02:45,67
30-09-2018,03:00,41
30-09-2018,03:15,56
30-09-2018,03:30,45
30-09-2018,03:45,39
30-09-2018,04:00,42
30-09-2018,04:15,36
30-09-2018,04:30,30
30-09-2018,04:45,23
30-09-2018,05:00,23
30-09-2018,05:15,14
30-09-2018,05:30,17
30-09-2018,05:45,23
30-09-2018,06:00,12
30-09-2018,06:15,13
30-09-2018,06:30,15
30-09-2018,06:45,18
30-09-2018,07:00,13
30-09-2018,07:15,16
30-09-2018,07:30,17
30-09-2018,07:45,22
30-09-2018,08:00,23
30-09-2018,08:15,33
30-09-2018,08:30,35
30-09-2018,08:45,37
30-09-2018,09:00,35
30-09-2018,09:15,47
30-09-2018,09:30,61
30-09-2018,09:45,57
30-09-2018,10:00,74
30-09-2018,10:15,73
30-09-2018,10:30,91
30-09-2018,10:45,85
30-09-2018,11:00,112
30-09-2018,11:15,102
30-09-2018,11:30,108
30-09-2018,11:45,138
30-09-2018,12:00,135
30-09-2018,12:15,135
30-09-2018,12:30,157
30-09-2018,12:45,137
30-09-2018,13:00,144
30-09-2018,13:15,124
30-09-2018,13:30,141
30-09-2018,13:45,122
30-09-2018,14:00,104
30-09-2018,14:15,117
30-09-2018,14:30,107
30-09-2018,14:45,97
30-09-2018,15:00,129
30-09-2018,15:15,116
30-09-2018,15:30,121
30-09-2018,15:45,106
30-09-2018,16:00,123
30-09-2018,16:15,127
30-09-2018,16:30,97
30-09-2018,16:45,102
30-09-2018,17:00,111
30-09-2018,17:15,134
30-09-2018,17:30,100
30-09-2018,17:45,124
30-09-2018,18:00,123
30-09-2018,18:15,126
30-09-2018,18:30,127
30-09-2018,18:45,124
30-09-2018,19:00,116
30-09-2018,19:15,120
30-09-2018,19:30,146
30-09-2018,19:45,137
30-09-2018,20:00,126
30-09-2018,20:15,115
30-09-2018,20:30,105
30-09-2018,20:45,91
30-09-2018,21:00,89
30-09-2018,21:15,79
30-09-2018,21:30,77
30-09-2018,21:45,64
30-09-2018,22:00,66
30-09-2018,22:15,76
30-09-2018,22:30,63
30-09-2018,22:45,74
30-09-2018,23:00,65
30-09-2018,23:15,81
30-09-2018,23:30,77
30-09-2018,23:45,71
01-10-2018,00:00,65
01-10-2018,00:15,50
01-10-2018,00:30,43
01-10-2018,00:45,37
01-10-2018,01:00,37
01-10-2018,01:15,35
01-10-2018,01:30,33
01-10-2018,01:45,36
01-10-2018,02:00,10
01-10-2018,02:15,15
01-10-2018,02:30,16
01-10-2018,02:45,9
01-10-2018,03:00,8
01-10-2018,03:15,12
01-10-2018,03:30,7
01-10-2018,03:45,6
01-10-2018,04:00,4
01-10-2018,04:15,5
01-10-2018,04:30,4
01-10-2018,04:45,3
01-10-2018,05:00,1
01-10-2018,05:15,3
01-10-2018,05:30,7
01-10-2018,05:45,5
01-10-2018,06:00,10
01-10-2018,06:15,13
01-10-2018,06:30,14
01-10-2018,06:45,26
01-10-2018,07:00,22
01-10-2018,07:15,36
01-10-2018,07:30,50
01-10-2018,07:45,76
01-10-2018,08:00,159
01-10-2018,08:15,162
01-10-2018,08:30,159
01-10-2018,08:45,163
01-10-2018,09:00,153
01-10-2018,09:15,137
01-10-2018,09:30,129
01-10-2018,09:45,134
01-10-2018,10:00,121
01-10-2018,10:15,129
01-10-2018,10:30,126
01-10-2018,10:45,152
01-10-2018,11:00,125
01-10-2018,11:15,155
01-10-2018,11:30,152
01-10-2018,11:45,151
01-10-2018,12:00,143
01-10-2018,12:15,151
01-10-2018,12:30,142
01-10-2018,12:45,167
01-10-2018,13:00,186
01-10-2018,13:15,199
01-10-2018,13:30,180
01-10-2018,13:45,155
01-10-2018,14:00,152
01-10-2018,14:15,164
01-10-2018,14:30,169
01-10-2018,14:45,171
01-10-2018,15:00,167
01-10-2018,15:15,191
01-10-2018,15:30,180
01-10-2018,15:45,193
01-10-2018,16:00,189
01-10-2018,16:15,211
01-10-2018,16:30,222
01-10-2018,16:45,222
01-10-2018,17:00,205
01-10-2018,17:15,215
01-10-2018,17:30,185
01-10-2018,17:45,91
01-10-2018,18:00,91
01-10-2018,18:15,106
01-10-2018,18:30,90
01-10-2018,18:45,76
01-10-2018,19:00,63
01-10-2018,19:15,81
01-10-2018,19:30,59
01-10-2018,19:45,95
01-10-2018,20:00,184
01-10-2018,20:15,178
01-10-2018,20:30,183
01-10-2018,20:45,170
01-10-2018,21:00,173
01-10-2018,21:15,144
01-10-2018,21:30,131
01-10-2018,21:45,112
01-10-2018,22:00,93
01-10-2018,22:15,89
01-10-2018,22:30,100
01-10-2018,22:45,76
01-10-2018,23:00,86
01-10-2018,23:15,101
01-10-2018,23:30,74
01-10-2018,23:45,60
02-10-2018,00:00,68
02-10-2018,00:15,58
02-10-2018,00:30,67
02-10-2018,00:45,52
02-10-2018,01:00,34
02-10-2018,01:15,30
02-10-2018,01:30,27
02-10-2018,01:45,21
02-10-2018,02:00,19
02-10-2018,02:15,11
02-10-2018,02:30,22
02-10-2018,02:45,14
02-10-2018,03:00,5
02-10-2018,03:15,4
02-10-2018,03:30,5
02-10-2018,03:45,9
02-10-2018,04:00,6
02-10-2018,04:15,3
02-10-2018,04:30,6
02-10-2018,04:45,5
02-10-2018,05:00,4
02-10-2018,05:15,6
02-10-2018,05:30,8
02-10-2018,05:45,2
02-10-2018,06:00,13
02-10-2018,06:15,6
02-10-2018,06:30,15
02-10-2018,06:45,19
02-10-2018,07:00,32
02-10-2018,07:15,30
02-10-2018,07:30,48
02-10-2018,07:45,96
02-10-2018,08:00,153
02-10-2018,08:15,162
02-10-2018,08:30,158
02-10-2018,08:45,165
02-10-2018,09:00,148
02-10-2018,09:15,159
02-10-2018,09:30,140
02-10-2018,09:45,136
02-10-2018,10:00,126
02-10-2018,10:15,131
02-10-2018,10:30,124
02-10-2018,10:45,140
02-10-2018,11:00,129
02-10-2018,11:15,133
02-10-2018,11:30,155
02-10-2018,11:45,180
02-10-2018,12:00,144
02-10-2018,12:15,186
02-10-2018,12:30,181
02-10-2018,12:45,165
02-10-2018,13:00,185
02-10-2018,13:15,168
02-10-2018,13:30,179
02-10-2018,13:45,173
02-10-2018,14:00,147
02-10-2018,14:15,173
02-10-2018,14:30,189
02-10-2018,14:45,187
02-10-2018,15:00,176
02-10-2018,15:15,199
02-10-2018,15:30,187
02-10-2018,15:45,188
02-10-2018,16:00,194
02-10-2018,16:15,114
02-10-2018,16:30,161
02-10-2018,16:45,211
02-10-2018,17:00,240
02-10-2018,17:15,233
02-10-2018,17:30,198
02-10-2018,17:45,182
02-10-2018,18:00,221
02-10-2018,18:15,187
02-10-2018,18:30,171
02-10-2018,18:45,144
02-10-2018,19:00,187
02-10-2018,19:15,193
02-10-2018,19:30,191
02-10-2018,19:45,211
02-10-2018,20:00,204
02-10-2018,20:15,190
02-10-2018,20:30,170
02-10-2018,20:45,158
02-10-2018,21:00,166
02-10-2018,21:15,134
02-10-2018,21:30,135
02-10-2018,21:45,101
02-10-2018,22:00,79
02-10-2018,22:15,93
02-10-2018,22:30,110
02-10-2018,22:45,101
02-10-2018,23:00,99
02-10-2018,23:15,105
02-10-2018,23:30,84
02-10-2018,23:45,82
03-10-2018,00:00,92
03-10-2018,00:15,63
03-10-2018,00:30,62
03-10-2018,00:45,59
03-10-2018,01:00,33
03-10-2018,01:15,37
03-10-2018,01:30,31
03-10-2018,01:45,25
03-10-2018,02:00,21
03-10-2018,02:15,19
03-10-2018,02:30,19
03-10-2018,02:45,17
03-10-2018,03:00,11
03-10-2018,03:15,15
03-10-2018,03:30,7
03-10-2018,03:45,8
03-10-2018,04:00,9
03-10-2018,04:15,4
03-10-2018,04:30,9
03-10-2018,04:45,8
03-10-2018,05:00,5
03-10-2018,05:15,10
03-10-2018,05:30,3
03-10-2018,05:45,4
03-10-2018,06:00,4
03-10-2018,06:15,15
03-10-2018,06:30,12
03-10-2018,06:45,23
03-10-2018,07:00,25
03-10-2018,07:15,30
03-10-2018,07:30,47
03-10-2018,07:45,77
03-10-2018,08:00,170
03-10-2018,08:15,168
03-10-2018,08:30,156
03-10-2018,08:45,167
03-10-2018,09:00,145
03-10-2018,09:15,154
03-10-2018,09:30,143
03-10-2018,09:45,134
03-10-2018,10:00,115
03-10-2018,10:15,129
03-10-2018,10:30,138
03-10-2018,10:45,134
03-10-2018,11:00,111
03-10-2018,11:15,140
03-10-2018,11:30,151
03-10-2018,11:45,167
03-10-2018,12:00,170
03-10-2018,12:15,172
03-10-2018,12:30,193
03-10-2018,12:45,186
03-10-2018,13:00,198
03-10-2018,13:15,176
03-10-2018,13:30,171
03-10-2018,13:45,164
03-10-2018,14:00,158
03-10-2018,14:15,161
03-10-2018,14:30,169
03-10-2018,14:45,184
03-10-2018,15:00,187
03-10-2018,15:15,166
03-10-2018,15:30,186
03-10-2018,15:45,186
03-10-2018,16:00,171
03-10-2018,16:15,195
03-10-2018,16:30,212
03-10-2018,16:45,204
03-10-2018,17:00,202
03-10-2018,17:15,193
03-10-2018,17:30,158
03-10-2018,17:45,96
03-10-2018,18:00,107
03-10-2018,18:15,109
03-10-2018,18:30,122
03-10-2018,18:45,69
03-10-2018,19:00,92
03-10-2018,19:15,106
03-10-2018,19:30,165
03-10-2018,19:45,220
03-10-2018,20:00,179
03-10-2018,20:15,193
03-10-2018,20:30,190
03-10-2018,20:45,173
03-10-2018,21:00,176
03-10-2018,21:15,146
03-10-2018,21:30,116
03-10-2018,21:45,123
03-10-2018,22:00,84
03-10-2018,22:15,110
03-10-2018,22:30,90
03-10-2018,22:45,109
03-10-2018,23:00,96
03-10-2018,23:15,109
03-10-2018,23:30,99
03-10-2018,23:45,76
