time,vehicle
2019-01-06 11:23:52,light
2019-01-06 11:23:59,light
2019-01-06 11:24:11,light
2019-01-06 11:24:23,light
2019-01-06 11:24:41,light
2019-01-06 11:24:42,light
2019-01-06 11:24:53,light
2019-01-06 11:25:01,light
2019-01-06 11:25:03,light
2019-01-06 11:25:07,light
2019-01-06 11:25:24,light
2019-01-06 11:25:28,light
2019-01-06 11:25:30,light
2019-01-06 11:25:48,light
2019-01-06 11:25:51,light
2019-01-06 11:25:59,light
2019-01-06 11:26:42,light
2019-01-06 11:26:44,light
2019-01-06 11:26:47,light
2019-01-06 11:26:56,light
2019-01-06 11:26:59,light
2019-01-06 11:27:00,light
2019-01-06 11:27:10,light
2019-01-06 11:27:12,light
2019-01-06 11:27:22,light
2019-01-06 11:27:45,light
2019-01-06 11:28:18,light
2019-01-06 11:28:23,light
2019-01-06 11:28:26,light
2019-01-06 11:28:36,light
2019-01-06 11:28:43,light
2019-01-06 11:28:47,light
2019-01-06 11:28:53,light
