day,time,count
20-09-2018,07:30,27
20-09-2018,07:45,39
20-09-2018,08:00,73
20-09-2018,08:15,100
20-09-2018,08:30,70
20-09-2018,08:45,116
20-09-2018,09:00,101
20-09-2018,09:15,88
20-09-2018,09:30,108
20-09-2018,09:45,77
20-09-2018,10:00,92
20-09-2018,10:15,76
20-09-2018,10:30,79
20-09-2018,10:45,72
20-09-2018,11:00,68
20-09-2018,11:15,76
20-09-2018,11:30,73
20-09-2018,11:45,70
20-09-2018,12:00,60
20-09-2018,12:15,83
20-09-2018,12:30,75
20-09-2018,12:45,84
20-09-2018,13:00,69
20-09-2018,13:15,62
20-09-2018,13:30,60
20-09-2018,13:45,59
20-09-2018,14:00,56
20-09-2018,14:15,67
20-09-2018,14:30,67
20-09-2018,14:45,67
20-09-2018,15:00,68
20-09-2018,15:15,68
20-09-2018,15:30,82
20-09-2018,15:45,79
20-09-2018,16:00,77
20-09-2018,16:15,70
20-09-2018,16:30,78
20-09-2018,16:45,67
20-09-2018,17:00,86
20-09-2018,17:15,68
20-09-2018,17:30,69
20-09-2018,17:45,66
20-09-2018,18:00,75
20-09-2018,18:15,85
20-09-2018,18:30,67
20-09-2018,18:45,74
20-09-2018,19:00,65
20-09-2018,19:15,78
20-09-2018,19:30,70
20-09-2018,19:45,74
20-09-2018,20:00,80
20-09-2018,20:15,72
20-09-2018,20:30,69
20-09-2018,20:45,60
20-09-2018,21:00,44
20-09-2018,21:15,62
20-09-2018,21:30,39
20-09-2018,21:45,44
20-09-2018,22:00,52
20-09-2018,22:15,47
20-09-2018,22:30,46
20-09-2018,22:45,37
20-09-2018,23:00,35
20-09-2018,23:15,36
20-09-2018,23:30,22
20-09-2018,23:45,32
21-09-2018,00:00,27
21-09-2018,00:15,36
21-09-2018,00:30,23
21-09-2018,00:45,19
21-09-2018,01:00,20
21-09-2018,01:15,11
21-09-2018,01:30,9
21-09-2018,01:45,14
21-09-2018,02:00,12
21-09-2018,02:15,8
21-09-2018,02:30,11
21-09-2018,02:45,7
21-09-2018,03:00,4
21-09-2018,03:15,4
21-09-2018,03:30,3
21-09-2018,03:45,6
21-09-2018,04:00,1
21-09-2018,04:15,4
21-09-2018,04:30,0
21-09-2018,04:45,6
21-09-2018,05:00,4
21-09-2018,05:15,5
21-09-2018,05:30,5
21-09-2018,05:45,4
21-09-2018,06:00,7
21-09-2018,06:15,8
21-09-2018,06:30,6
21-09-2018,06:45,10
21-09-2018,07:00,17
21-09-2018,07:15,23
21-09-2018,07:30,24
21-09-2018,07:45,45
21-09-2018,08:00,76
21-09-2018,08:15,88
21-09-2018,08:30,91
21-09-2018,08:45,92
21-09-2018,09:00,97
21-09-2018,09:15,73
21-09-2018,09:30,97
21-09-2018,09:45,103
21-09-2018,10:00,91
21-09-2018,10:15,90
21-09-2018,10:30,87
21-09-2018,10:45,59
21-09-2018,11:00,67
21-09-2018,11:15,51
21-09-2018,11:30,73
21-09-2018,11:45,74
21-09-2018,12:00,63
21-09-2018,12:15,71
21-09-2018,12:30,65
21-09-2018,12:45,77
21-09-2018,13:00,85
21-09-2018,13:15,72
21-09-2018,13:30,69
21-09-2018,13:45,77
21-09-2018,14:00,73
21-09-2018,14:15,64
21-09-2018,14:30,61
21-09-2018,14:45,73
21-09-2018,15:00,76
21-09-2018,15:15,92
21-09-2018,15:30,63
21-09-2018,15:45,76
21-09-2018,16:00,76
21-09-2018,16:15,69
21-09-2018,16:30,61
21-09-2018,16:45,61
21-09-2018,17:00,69
21-09-2018,17:15,74
21-09-2018,17:30,85
21-09-2018,17:45,57
21-09-2018,18:00,64
21-09-2018,18:15,46
21-09-2018,18:30,60
21-09-2018,18:45,71
21-09-2018,19:00,69
21-09-2018,19:15,64
21-09-2018,19:30,66
21-09-2018,19:45,75
21-09-2018,20:00,65
21-09-2018,20:15,62
21-09-2018,20:30,71
21-09-2018,20:45,65
21-09-2018,21:00,46
21-09-2018,21:15,51
21-09-2018,21:30,52
21-09-2018,21:45,46
21-09-2018,22:00,50
21-09-2018,22:15,36
21-09-2018,22:30,56
21-09-2018,22:45,41
21-09-2018,23:00,32
21-09-2018,23:15,37
21-09-2018,23:30,46
21-09-2018,23:45,32
22-09-2018,00:00,35
22-09-2018,00:15,32
22-09-2018,00:30,22
22-09-2018,00:45,29
22-09-2018,01:00,30
22-09-2018,01:15,29
22-09-2018,01:30,24
22-09-2018,01:45,16
22-09-2018,02:00,16
22-09-2018,02:15,14
22-09-2018,02:30,12
22-09-2018,02:45,7
22-09-2018,03:00,12
22-09-2018,03:15,10
22-09-2018,03:30,13
22-09-2018,03:45,7
22-09-2018,04:00,10
22-09-2018,04:15,6
22-09-2018,04:30,2
22-09-2018,04:45,6
22-09-2018,05:00,6
22-09-2018,05:15,5
22-09-2018,05:30,5
22-09-2018,05:45,3
22-09-2018,06:00,12
22-09-2018,06:15,8
22-09-2018,06:30,3
22-09-2018,06:45,15
22-09-2018,07:00,5
22-09-2018,07:15,12
22-09-2018,07:30,8
22-09-2018,07:45,19
22-09-2018,08:00,22
22-09-2018,08:15,18
22-09-2018,08:30,24
22-09-2018,08:45,20
22-09-2018,09:00,25
22-09-2018,09:15,34
22-09-2018,09:30,46
22-09-2018,09:45,42
22-09-2018,10:00,66
22-09-2018,10:15,72
22-09-2018,10:30,69
22-09-2018,10:45,66
22-09-2018,11:00,56
22-09-2018,11:15,67
22-09-2018,11:30,72
22-09-2018,11:45,71
22-09-2018,12:00,70
22-09-2018,12:15,75
22-09-2018,12:30,82
22-09-2018,12:45,82
22-09-2018,13:00,64
22-09-2018,13:15,66
22-09-2018,13:30,81
22-09-2018,13:45,75
22-09-2018,14:00,55
22-09-2018,14:15,58
22-09-2018,14:30,64
22-09-2018,14:45,60
22-09-2018,15:00,55
22-09-2018,15:15,69
22-09-2018,15:30,61
22-09-2018,15:45,62
22-09-2018,16:00,64
22-09-2018,16:15,66
22-09-2018,16:30,54
22-09-2018,16:45,61
22-09-2018,17:00,72
22-09-2018,17:15,52
22-09-2018,17:30,65
22-09-2018,17:45,57
22-09-2018,18:00,50
22-09-2018,18:15,59
22-09-2018,18:30,50
22-09-2018,18:45,66
22-09-2018,19:00,63
22-09-2018,19:15,68
22-09-2018,19:30,65
22-09-2018,19:45,62
22-09-2018,20:00,60
22-09-2018,20:15,70
22-09-2018,20:30,55
22-09-2018,20:45,66
22-09-2018,21:00,48
22-09-2018,21:15,55
22-09-2018,21:30,46
22-09-2018,21:45,45
22-09-2018,22:00,44
22-09-2018,22:15,34
22-09-2018,22:30,39
22-09-2018,22:45,28
22-09-2018,23:00,36
22-09-2018,23:15,49
22-09-2018,23:30,25
22-09-2018,23:45,30
23-09-2018,00:00,22
23-09-2018,00:15,24
23-09-2018,00:30,23
23-09-2018,00:45,25
23-09-2018,01:00,26
23-09-2018,01:15,19
23-09-2018,01:30,20
23-09-2018,01:45,21
23-09-2018,02:00,13
23-09-2018,02:15,12
23-09-2018,02:30,9
23-09-2018,02:45,7
23-09-2018,03:00,11
23-09-2018,03:15,14
23-09-2018,03:30,8
23-09-2018,03:45,9
23-09-2018,04:00,7
23-09-2018,04:15,11
23-09-2018,04:30,4
23-09-2018,04:45,9
23-09-2018,05:00,10
23-09-2018,05:15,5
23-09-2018,05:30,5
23-09-2018,05:45,9
23-09-2018,06:00,6
23-09-2018,06:15,6
23-09-2018,06:30,2
23-09-2018,06:45,10
23-09-2018,07:00,3
23-09-2018,07:15,4
23-09-2018,07:30,8
23-09-2018,07:45,10
23-09-2018,08:00,12
23-09-2018,08:15,7
23-09-2018,08:30,11
23-09-2018,08:45,11
23-09-2018,09:00,22
23-09-2018,09:15,20
23-09-2018,09:30,21
23-09-2018,09:45,25
23-09-2018,10:00,32
23-09-2018,10:15,28
23-09-2018,10:30,48
23-09-2018,10:45,47
23-09-2018,11:00,50
23-09-2018,11:15,53
23-09-2018,11:30,50
23-09-2018,11:45,46
23-09-2018,12:00,55
23-09-2018,12:15,42
23-09-2018,12:30,60
23-09-2018,12:45,48
23-09-2018,13:00,57
23-09-2018,13:15,54
23-09-2018,13:30,56
23-09-2018,13:45,51
23-09-2018,14:00,50
23-09-2018,14:15,44
23-09-2018,14:30,50
23-09-2018,14:45,43
23-09-2018,15:00,47
23-09-2018,15:15,58
23-09-2018,15:30,57
23-09-2018,15:45,49
23-09-2018,16:00,55
23-09-2018,16:15,66
23-09-2018,16:30,56
23-09-2018,16:45,46
23-09-2018,17:00,55
23-09-2018,17:15,47
23-09-2018,17:30,44
23-09-2018,17:45,44
23-09-2018,18:00,56
23-09-2018,18:15,44
23-09-2018,18:30,38
23-09-2018,18:45,47
23-09-2018,19:00,46
23-09-2018,19:15,47
23-09-2018,19:30,61
23-09-2018,19:45,55
23-09-2018,20:00,40
23-09-2018,20:15,69
23-09-2018,20:30,54
23-09-2018,20:45,56
23-09-2018,21:00,47
23-09-2018,21:15,32
23-09-2018,21:30,41
23-09-2018,21:45,44
23-09-2018,22:00,35
23-09-2018,22:15,21
23-09-2018,22:30,32
23-09-2018,22:45,29
23-09-2018,23:00,28
23-09-2018,23:15,21
23-09-2018,23:30,23
23-09-2018,23:45,15
24-09-2018,00:00,19
24-09-2018,00:15,14
24-09-2018,00:30,16
24-09-2018,00:45,7
24-09-2018,01:00,8
24-09-2018,01:15,3
24-09-2018,01:30,8
24-09-2018,01:45,10
24-09-2018,02:00,8
24-09-2018,02:15,1
24-09-2018,02:30,4
24-09-2018,02:45,1
24-09-2018,03:00,5
24-09-2018,03:15,2
24-09-2018,03:30,3
24-09-2018,03:45,0
24-09-2018,04:00,1
24-09-2018,04:15,2
24-09-2018,04:30,0
24-09-2018,04:45,4
24-09-2018,05:00,1
24-09-2018,05:15,3
24-09-2018,05:30,3
24-09-2018,05:45,6
24-09-2018,06:00,6
24-09-2018,06:15,6
24-09-2018,06:30,10
24-09-2018,06:45,13
24-09-2018,07:00,17
24-09-2018,07:15,21
24-09-2018,07:30,28
24-09-2018,07:45,37
24-09-2018,08:00,79
24-09-2018,08:15,95
24-09-2018,08:30,107
24-09-2018,08:45,81
24-09-2018,09:00,86
24-09-2018,09:15,79
24-09-2018,09:30,95
24-09-2018,09:45,86
24-09-2018,10:00,85
24-09-2018,10:15,73
24-09-2018,10:30,76
24-09-2018,10:45,65
24-09-2018,11:00,62
24-09-2018,11:15,56
24-09-2018,11:30,64
24-09-2018,11:45,69
24-09-2018,12:00,71
24-09-2018,12:15,75
24-09-2018,12:30,66
24-09-2018,12:45,60
24-09-2018,13:00,54
24-09-2018,13:15,63
24-09-2018,13:30,61
24-09-2018,13:45,61
24-09-2018,14:00,69
24-09-2018,14:15,80
24-09-2018,14:30,66
24-09-2018,14:45,73
24-09-2018,15:00,71
24-09-2018,15:15,74
24-09-2018,15:30,66
24-09-2018,15:45,73
24-09-2018,16:00,55
24-09-2018,16:15,71
24-09-2018,16:30,76
24-09-2018,16:45,69
24-09-2018,17:00,71
24-09-2018,17:15,82
24-09-2018,17:30,52
24-09-2018,17:45,81
24-09-2018,18:00,69
24-09-2018,18:15,69
24-09-2018,18:30,74
24-09-2018,18:45,67
24-09-2018,19:00,63
24-09-2018,19:15,74
24-09-2018,19:30,69
24-09-2018,19:45,67
24-09-2018,20:00,55
24-09-2018,20:15,71
24-09-2018,20:30,64
24-09-2018,20:45,52
24-09-2018,21:00,42
24-09-2018,21:15,57
24-09-2018,21:30,40
24-09-2018,21:45,40
24-09-2018,22:00,41
24-09-2018,22:15,43
24-09-2018,22:30,39
24-09-2018,22:45,26
24-09-2018,23:00,24
24-09-2018,23:15,20
24-09-2018,23:30,30
24-09-2018,23:45,32
25-09-2018,00:00,18
25-09-2018,00:15,25
25-09-2018,00:30,15
25-09-2018,00:45,8
25-09-2018,01:00,7
25-09-2018,01:15,12
25-09-2018,01:30,12
25-09-2018,01:45,13
25-09-2018,02:00,3
25-09-2018,02:15,8
25-09-2018,02:30,4
25-09-2018,02:45,11
25-09-2018,03:00,3
25-09-2018,03:15,2
25-09-2018,03:30,2
25-09-2018,03:45,5
25-09-2018,04:00,3
25-09-2018,04:15,2
25-09-2018,04:30,1
25-09-2018,04:45,5
25-09-2018,05:00,2
25-09-2018,05:15,6
25-09-2018,05:30,6
25-09-2018,05:45,7
25-09-2018,06:00,7
25-09-2018,06:15,7
25-09-2018,06:30,9
25-09-2018,06:45,16
25-09-2018,07:00,20
25-09-2018,07:15,20
25-09-2018,07:30,27
25-09-2018,07:45,39
25-09-2018,08:00,75
25-09-2018,08:15,98
25-09-2018,08:30,95
25-09-2018,08:45,112
25-09-2018,09:00,89
25-09-2018,09:15,105
25-09-2018,09:30,105
25-09-2018,09:45,83
25-09-2018,10:00,80
25-09-2018,10:15,61
25-09-2018,10:30,76
25-09-2018,10:45,73
25-09-2018,11:00,73
25-09-2018,11:15,68
25-09-2018,11:30,47
25-09-2018,11:45,80
25-09-2018,12:00,74
25-09-2018,12:15,66
25-09-2018,12:30,73
25-09-2018,12:45,80
25-09-2018,13:00,86
25-09-2018,13:15,68
25-09-2018,13:30,72
25-09-2018,13:45,70
25-09-2018,14:00,67
25-09-2018,14:15,64
25-09-2018,14:30,75
25-09-2018,14:45,75
25-09-2018,15:00,54
25-09-2018,15:15,76
25-09-2018,15:30,76
25-09-2018,15:45,88
25-09-2018,16:00,74
25-09-2018,16:15,64
25-09-2018,16:30,84
25-09-2018,16:45,58
25-09-2018,17:00,79
25-09-2018,17:15,70
25-09-2018,17:30,67
25-09-2018,17:45,79
25-09-2018,18:00,63
25-09-2018,18:15,71
25-09-2018,18:30,61
25-09-2018,18:45,64
25-09-2018,19:00,80
25-09-2018,19:15,68
25-09-2018,19:30,74
25-09-2018,19:45,71
25-09-2018,20:00,65
25-09-2018,20:15,53
25-09-2018,20:30,63
25-09-2018,20:45,72
25-09-2018,21:00,62
25-09-2018,21:15,62
25-09-2018,21:30,50
25-09-2018,21:45,44
25-09-2018,22:00,59
25-09-2018,22:15,43
25-09-2018,22:30,44
25-09-2018,22:45,36
25-09-2018,23:00,32
25-09-2018,23:15,30
25-09-2018,23:30,37
25-09-2018,23:45,38
26-09-2018,00:00,28
26-09-2018,00:15,11
26-09-2018,00:30,22
26-09-2018,00:45,10
26-09-2018,01:00,14
26-09-2018,01:15,8
26-09-2018,01:30,9
26-09-2018,01:45,6
26-09-2018,02:00,0
26-09-2018,02:15,6
26-09-2018,02:30,9
26-09-2018,02:45,1
26-09-2018,03:00,2
26-09-2018,03:15,1
26-09-2018,03:30,4
26-09-2018,03:45,2
26-09-2018,04:00,4
26-09-2018,04:15,5
26-09-2018,04:30,4
26-09-2018,04:45,6
26-09-2018,05:00,2
26-09-2018,05:15,4
26-09-2018,05:30,3
26-09-2018,05:45,4
26-09-2018,06:00,3
26-09-2018,06:15,7
26-09-2018,06:30,8
26-09-2018,06:45,10
26-09-2018,07:00,18
26-09-2018,07:15,20
26-09-2018,07:30,25
26-09-2018,07:45,41
26-09-2018,08:00,69
26-09-2018,08:15,104
26-09-2018,08:30,93
26-09-2018,08:45,109
26-09-2018,09:00,98
26-09-2018,09:15,87
26-09-2018,09:30,101
26-09-2018,09:45,85
26-09-2018,10:00,85
26-09-2018,10:15,71
26-09-2018,10:30,62
26-09-2018,10:45,75
26-09-2018,11:00,75
26-09-2018,11:15,79
26-09-2018,11:30,80
26-09-2018,11:45,71
26-09-2018,12:00,65
26-09-2018,12:15,70
26-09-2018,12:30,73
26-09-2018,12:45,72
26-09-2018,13:00,76
26-09-2018,13:15,76
26-09-2018,13:30,76
26-09-2018,13:45,75
26-09-2018,14:00,68
26-09-2018,14:15,83
26-09-2018,14:30,74
26-09-2018,14:45,112
26-09-2018,15:00,93
26-09-2018,15:15,79
26-09-2018,15:30,94
26-09-2018,15:45,74
26-09-2018,16:00,77
26-09-2018,16:15,70
26-09-2018,16:30,71
26-09-2018,16:45,67
26-09-2018,17:00,82
26-09-2018,17:15,85
26-09-2018,17:30,80
26-09-2018,17:45,77
26-09-2018,18:00,69
26-09-2018,18:15,63
26-09-2018,18:30,65
26-09-2018,18:45,97
26-09-2018,19:00,98
26-09-2018,19:15,95
26-09-2018,19:30,87
26-09-2018,19:45,83
26-09-2018,20:00,80
26-09-2018,20:15,87
26-09-2018,20:30,70
26-09-2018,20:45,72
26-09-2018,21:00,55
26-09-2018,21:15,51
26-09-2018,21:30,56
26-09-2018,21:45,61
26-09-2018,22:00,44
26-09-2018,22:15,38
26-09-2018,22:30,46
26-09-2018,22:45,38
26-09-2018,23:00,38
26-09-2018,23:15,36
26-09-2018,23:30,28
26-09-2018,23:45,32
27-09-2018,00:00,33
27-09-2018,00:15,25
27-09-2018,00:30,17
27-09-2018,00:45,19
27-09-2018,01:00,22
27-09-2018,01:15,12
27-09-2018,01:30,9
27-09-2018,01:45,11
27-09-2018,02:00,9
27-09-2018,02:15,9
27-09-2018,02:30,6
27-09-2018,02:45,4
27-09-2018,03:00,3
27-09-2018,03:15,3
27-09-2018,03:30,4
27-09-2018,03:45,4
27-09-2018,04:00,1
27-09-2018,04:15,2
27-09-2018,04:30,2
27-09-2018,04:45,6
27-09-2018,05:00,4
27-09-2018,05:15,6
27-09-2018,05:30,2
27-09-2018,05:45,2
27-09-2018,06:00,5
27-09-2018,06:15,9
27-09-2018,06:30,9
27-09-2018,06:45,16
27-09-2018,07:00,21
27-09-2018,07:15,26
27-09-2018,07:30,18
27-09-2018,07:45,37
27-09-2018,08:00,82
27-09-2018,08:15,88
27-09-2018,08:30,98
27-09-2018,08:45,91
27-09-2018,09:00,92
27-09-2018,09:15,86
27-09-2018,09:30,88
27-09-2018,09:45,73
27-09-2018,10:00,91
27-09-2018,10:15,81
27-09-2018,10:30,73
27-09-2018,10:45,66
27-09-2018,11:00,70
27-09-2018,11:15,62
27-09-2018,11:30,69
27-09-2018,11:45,45
27-09-2018,12:00,75
27-09-2018,12:15,81
27-09-2018,12:30,71
27-09-2018,12:45,73
27-09-2018,13:00,67
27-09-2018,13:15,60
27-09-2018,13:30,72
27-09-2018,13:45,66
27-09-2018,14:00,73
27-09-2018,14:15,73
27-09-2018,14:30,73
27-09-2018,14:45,82
27-09-2018,15:00,55
27-09-2018,15:15,71
27-09-2018,15:30,82
27-09-2018,15:45,84
27-09-2018,16:00,67
27-09-2018,16:15,71
27-09-2018,16:30,82
27-09-2018,16:45,41
27-09-2018,17:00,76
27-09-2018,17:15,76
27-09-2018,17:30,83
27-09-2018,17:45,65
27-09-2018,18:00,60
27-09-2018,18:15,76
27-09-2018,18:30,69
27-09-2018,18:45,72
27-09-2018,19:00,78
27-09-2018,19:15,71
27-09-2018,19:30,82
27-09-2018,19:45,78
27-09-2018,20:00,74
27-09-2018,20:15,69
27-09-2018,20:30,75
27-09-2018,20:45,78
27-09-2018,21:00,52
27-09-2018,21:15,60
27-09-2018,21:30,37
27-09-2018,21:45,58
27-09-2018,22:00,38
27-09-2018,22:15,31
27-09-2018,22:30,49
27-09-2018,22:45,33
27-09-2018,23:00,41
27-09-2018,23:15,40
27-09-2018,23:30,35
27-09-2018,23:45,36
28-09-2018,00:00,35
28-09-2018,00:15,29
28-09-2018,00:30,28
28-09-2018,00:45,25
28-09-2018,01:00,22
28-09-2018,01:15,12
28-09-2018,01:30,10
28-09-2018,01:45,14
28-09-2018,02:00,5
28-09-2018,02:15,4
28-09-2018,02:30,11
28-09-2018,02:45,8
28-09-2018,03:00,5
28-09-2018,03:15,5
28-09-2018,03:30,3
28-09-2018,03:45,4
28-09-2018,04:00,4
28-09-2018,04:15,5
28-09-2018,04:30,5
28-09-2018,04:45,4
28-09-2018,05:00,3
28-09-2018,05:15,6
28-09-2018,05:30,4
28-09-2018,05:45,9
28-09-2018,06:00,5
28-09-2018,06:15,8
28-09-2018,06:30,7
28-09-2018,06:45,7
28-09-2018,07:00,19
28-09-2018,07:15,24
28-09-2018,07:30,20
28-09-2018,07:45,43
28-09-2018,08:00,79
28-09-2018,08:15,66
28-09-2018,08:30,89
28-09-2018,08:45,80
28-09-2018,09:00,86
28-09-2018,09:15,87
28-09-2018,09:30,85
28-09-2018,09:45,87
28-09-2018,10:00,88
28-09-2018,10:15,67
28-09-2018,10:30,77
28-09-2018,10:45,69
28-09-2018,11:00,78
28-09-2018,11:15,83
28-09-2018,11:30,72
28-09-2018,11:45,75
28-09-2018,12:00,73
28-09-2018,12:15,80
28-09-2018,12:30,71
28-09-2018,12:45,70
28-09-2018,13:00,74
28-09-2018,13:15,89
28-09-2018,13:30,75
28-09-2018,13:45,97
28-09-2018,14:00,89
28-09-2018,14:15,78
28-09-2018,14:30,84
28-09-2018,14:45,65
28-09-2018,15:00,82
28-09-2018,15:15,80
28-09-2018,15:30,67
28-09-2018,15:45,90
28-09-2018,16:00,89
28-09-2018,16:15,88
28-09-2018,16:30,63
28-09-2018,16:45,88
28-09-2018,17:00,62
28-09-2018,17:15,68
28-09-2018,17:30,79
28-09-2018,17:45,66
28-09-2018,18:00,80
28-09-2018,18:15,75
28-09-2018,18:30,65
28-09-2018,18:45,76
28-09-2018,19:00,70
28-09-2018,19:15,78
28-09-2018,19:30,75
28-09-2018,19:45,62
28-09-2018,20:00,70
28-09-2018,20:15,74
28-09-2018,20:30,75
28-09-2018,20:45,85
28-09-2018,21:00,75
28-09-2018,21:15,93
28-09-2018,21:30,71
28-09-2018,21:45,66
28-09-2018,22:00,50
28-09-2018,22:15,49
28-09-2018,22:30,43
28-09-2018,22:45,37
28-09-2018,23:00,33
28-09-2018,23:15,37
28-09-2018,23:30,41
28-09-2018,23:45,36
29-09-2018,00:00,35
29-09-2018,00:15,38
29-09-2018,00:30,30
29-09-2018,00:45,24
29-09-2018,01:00,27
29-09-2018,01:15,21
29-09-2018,01:30,15
29-09-2018,01:45,22
29-09-2018,02:00,20
29-09-2018,02:15,12
29-09-2018,02:30,14
29-09-2018,02:45,12
29-09-2018,03:00,9
29-09-2018,03:15,13
29-09-2018,03:30,12
29-09-2018,03:45,11
29-09-2018,04:00,11
29-09-2018,04:15,10
29-09-2018,04:30,13
29-09-2018,04:45,9
29-09-2018,05:00,9
29-09-2018,05:15,6
29-09-2018,05:30,7
29-09-2018,05:45,13
29-09-2018,06:00,5
29-09-2018,06:15,9
29-09-2018,06:30,10
29-09-2018,06:45,3
29-09-2018,07:00,8
29-09-2018,07:15,16
29-09-2018,07:30,10
29-09-2018,07:45,14
29-09-2018,08:00,21
29-09-2018,08:15,24
29-09-2018,08:30,24
29-09-2018,08:45,24
29-09-2018,09:00,32
29-09-2018,09:15,35
29-09-2018,09:30,45
29-09-2018,09:45,59
29-09-2018,10:00,52
29-09-2018,10:15,69
29-09-2018,10:30,58
29-09-2018,10:45,75
29-09-2018,11:00,79
29-09-2018,11:15,83
29-09-2018,11:30,56
29-09-2018,11:45,79
29-09-2018,12:00,81
29-09-2018,12:15,86
29-09-2018,12:30,94
29-09-2018,12:45,68
29-09-2018,13:00,69
29-09-2018,13:15,60
29-09-2018,13:30,74
29-09-2018,13:45,92
29-09-2018,14:00,71
29-09-2018,14:15,70
29-09-2018,14:30,58
29-09-2018,14:45,75
29-09-2018,15:00,69
29-09-2018,15:15,78
29-09-2018,15:30,63
29-09-2018,15:45,68
29-09-2018,16:00,66
29-09-2018,16:15,58
29-09-2018,16:30,75
29-09-2018,16:45,66
29-09-2018,17:00,84
29-09-2018,17:15,57
29-09-2018,17:30,63
29-09-2018,17:45,64
29-09-2018,18:00,56
29-09-2018,18:15,65
29-09-2018,18:30,59
29-09-2018,18:45,62
29-09-2018,19:00,75
29-09-2018,19:15,66
29-09-2018,19:30,70
29-09-2018,19:45,62
29-09-2018,20:00,62
29-09-2018,20:15,78
29-09-2018,20:30,80
29-09-2018,20:45,69
29-09-2018,21:00,63
29-09-2018,21:15,50
29-09-2018,21:30,52
29-09-2018,21:45,44
29-09-2018,22:00,38
29-09-2018,22:15,37
29-09-2018,22:30,38
29-09-2018,22:45,35
29-09-2018,23:00,24
29-09-2018,23:15,35
29-09-2018,23:30,30
29-09-2018,23:45,35
30-09-2018,00:00,34
30-09-2018,00:15,21
30-09-2018,00:30,33
30-09-2018,00:45,31
30-09-2018,01:00,19
30-09-2018,01:15,20
30-09-2018,01:30,24
30-09-2018,01:45,29
30-09-2018,02:00,15
30-09-2018,02:15,8
30-09-2018,02:30,15
30-09-2018,02:45,14
30-09-2018,03:00,13
30-09-2018,03:15,9
30-09-2018,03:30,11
30-09-2018,03:45,11
30-09-2018,04:00,7
30-09-2018,04:15,13
30-09-2018,04:30,14
30-09-2018,04:45,11
30-09-2018,05:00,6
30-09-2018,05:15,9
30-09-2018,05:30,9
30-09-2018,05:45,7
30-09-2018,06:00,3
30-09-2018,06:15,7
30-09-2018,06:30,7
30-09-2018,06:45,7
30-09-2018,07:00,1
30-09-2018,07:15,5
30-09-2018,07:30,7
30-09-2018,07:45,10
30-09-2018,08:00,12
30-09-2018,08:15,10
30-09-2018,08:30,7
30-09-2018,08:45,11
30-09-2018,09:00,19
30-09-2018,09:15,14
30-09-2018,09:30,28
30-09-2018,09:45,25
30-09-2018,10:00,25
30-09-2018,10:15,37
30-09-2018,10:30,39
30-09-2018,10:45,42
30-09-2018,11:00,45
30-09-2018,11:15,44
30-09-2018,11:30,60
30-09-2018,11:45,45
30-09-2018,12:00,56
30-09-2018,12:15,50
30-09-2018,12:30,69
30-09-2018,12:45,62
30-09-2018,13:00,63
30-09-2018,13:15,52
30-09-2018,13:30,67
30-09-2018,13:45,43
30-09-2018,14:00,58
30-09-2018,14:15,47
30-09-2018,14:30,48
30-09-2018,14:45,47
30-09-2018,15:00,55
30-09-2018,15:15,57
30-09-2018,15:30,55
30-09-2018,15:45,65
30-09-2018,16:00,58
30-09-2018,16:15,61
30-09-2018,16:30,56
30-09-2018,16:45,57
30-09-2018,17:00,57
30-09-2018,17:15,67
30-09-2018,17:30,56
30-09-2018,17:45,60
30-09-2018,18:00,61
30-09-2018,18:15,61
30-09-2018,18:30,66
30-09-2018,18:45,60
30-09-2018,19:00,63
30-09-2018,19:15,51
30-09-2018,19:30,65
30-09-2018,19:45,68
30-09-2018,20:00,68
30-09-2018,20:15,69
30-09-2018,20:30,64
30-09-2018,20:45,56
30-09-2018,21:00,41
30-09-2018,21:15,46
30-09-2018,21:30,49
30-09-2018,21:45,50
30-09-2018,22:00,46
30-09-2018,22:15,42
30-09-2018,22:30,37
30-09-2018,22:45,33
30-09-2018,23:00,29
30-09-2018,23:15,33
30-09-2018,23:30,20
30-09-2018,23:45,23
01-10-2018,00:00,15
01-10-2018,00:15,15
01-10-2018,00:30,14
01-10-2018,00:45,9
01-10-2018,01:00,4
01-10-2018,01:15,7
01-10-2018,01:30,8
01-10-2018,01:45,6
01-10-2018,02:00,6
01-10-2018,02:15,6
01-10-2018,02:30,5
01-10-2018,02:45,3
01-10-2018,03:00,4
01-10-2018,03:15,2
01-10-2018,03:30,3
01-10-2018,03:45,5
01-10-2018,04:00,2
01-10-2018,04:15,0
01-10-2018,04:30,2
01-10-2018,04:45,6
01-10-2018,05:00,3
01-10-2018,05:15,4
01-10-2018,05:30,5
01-10-2018,05:45,4
01-10-2018,06:00,8
01-10-2018,06:15,6
01-10-2018,06:30,6
01-10-2018,06:45,13
01-10-2018,07:00,21
01-10-2018,07:15,15
01-10-2018,07:30,20
01-10-2018,07:45,49
01-10-2018,08:00,69
01-10-2018,08:15,80
01-10-2018,08:30,82
01-10-2018,08:45,83
01-10-2018,09:00,90
01-10-2018,09:15,91
01-10-2018,09:30,88
01-10-2018,09:45,72
01-10-2018,10:00,67
01-10-2018,10:15,78
01-10-2018,10:30,74
01-10-2018,10:45,68
01-10-2018,11:00,63
01-10-2018,11:15,66
01-10-2018,11:30,67
01-10-2018,11:45,79
01-10-2018,12:00,82
01-10-2018,12:15,84
01-10-2018,12:30,75
01-10-2018,12:45,82
01-10-2018,13:00,69
01-10-2018,13:15,63
01-10-2018,13:30,60
01-10-2018,13:45,87
01-10-2018,14:00,58
01-10-2018,14:15,57
01-10-2018,14:30,71
01-10-2018,14:45,71
01-10-2018,15:00,82
01-10-2018,15:15,78
01-10-2018,15:30,65
01-10-2018,15:45,65
01-10-2018,16:00,77
01-10-2018,16:15,85
01-10-2018,16:30,85
01-10-2018,16:45,69
01-10-2018,17:00,78
01-10-2018,17:15,71
01-10-2018,17:30,81
01-10-2018,17:45,68
01-10-2018,18:00,69
01-10-2018,18:15,56
01-10-2018,18:30,64
01-10-2018,18:45,81
01-10-2018,19:00,85
01-10-2018,19:15,78
01-10-2018,19:30,81
01-10-2018,19:45,79
01-10-2018,20:00,67
01-10-2018,20:15,77
01-10-2018,20:30,59
01-10-2018,20:45,57
01-10-2018,21:00,57
01-10-2018,21:15,50
01-10-2018,21:30,47
01-10-2018,21:45,38
01-10-2018,22:00,41
01-10-2018,22:15,38
01-10-2018,22:30,37
01-10-2018,22:45,25
01-10-2018,23:00,21
01-10-2018,23:15,28
01-10-2018,23:30,26
01-10-2018,23:45,25
02-10-2018,00:00,25
02-10-2018,00:15,17
02-10-2018,00:30,16
02-10-2018,00:45,13
02-10-2018,01:00,18
02-10-2018,01:15,9
02-10-2018,01:30,12
02-10-2018,01:45,8
02-10-2018,02:00,10
02-10-2018,02:15,4
02-10-2018,02:30,6
02-10-2018,02:45,3
02-10-2018,03:00,4
02-10-2018,03:15,2
02-10-2018,03:30,2
02-10-2018,03:45,3
02-10-2018,04:00,2
02-10-2018,04:15,2
02-10-2018,04:30,3
02-10-2018,04:45,4
02-10-2018,05:00,6
02-10-2018,05:15,5
02-10-2018,05:30,1
02-10-2018,05:45,5
02-10-2018,06:00,7
02-10-2018,06:15,11
02-10-2018,06:30,8
02-10-2018,06:45,14
02-10-2018,07:00,16
02-10-2018,07:15,24
02-10-2018,07:30,29
02-10-2018,07:45,37
02-10-2018,08:00,72
02-10-2018,08:15,101
02-10-2018,08:30,81
02-10-2018,08:45,82
02-10-2018,09:00,91
02-10-2018,09:15,68
02-10-2018,09:30,105
02-10-2018,09:45,87
02-10-2018,10:00,89
02-10-2018,10:15,69
02-10-2018,10:30,59
02-10-2018,10:45,73
02-10-2018,11:00,73
02-10-2018,11:15,59
02-10-2018,11:30,73
02-10-2018,11:45,77
02-10-2018,12:00,81
02-10-2018,12:15,68
02-10-2018,12:30,69
02-10-2018,12:45,85
02-10-2018,13:00,87
02-10-2018,13:15,82
02-10-2018,13:30,65
02-10-2018,13:45,83
02-10-2018,14:00,73
02-10-2018,14:15,74
02-10-2018,14:30,70
02-10-2018,14:45,85
02-10-2018,15:00,61
02-10-2018,15:15,69
02-10-2018,15:30,61
02-10-2018,15:45,75
02-10-2018,16:00,77
02-10-2018,16:15,75
02-10-2018,16:30,75
02-10-2018,16:45,63
02-10-2018,17:00,74
02-10-2018,17:15,84
02-10-2018,17:30,91
02-10-2018,17:45,77
02-10-2018,18:00,83
02-10-2018,18:15,77
02-10-2018,18:30,63
02-10-2018,18:45,73
02-10-2018,19:00,75
02-10-2018,19:15,72
02-10-2018,19:30,79
02-10-2018,19:45,66
02-10-2018,20:00,71
02-10-2018,20:15,79
02-10-2018,20:30,62
02-10-2018,20:45,62
02-10-2018,21:00,60
02-10-2018,21:15,53
02-10-2018,21:30,53
02-10-2018,21:45,53
02-10-2018,22:00,39
02-10-2018,22:15,38
02-10-2018,22:30,37
02-10-2018,22:45,39
02-10-2018,23:00,34
02-10-2018,23:15,24
02-10-2018,23:30,34
02-10-2018,23:45,32
03-10-2018,00:00,29
03-10-2018,00:15,17
03-10-2018,00:30,23
03-10-2018,00:45,19
03-10-2018,01:00,16
03-10-2018,01:15,14
03-10-2018,01:30,13
03-10-2018,01:45,13
03-10-2018,02:00,13
03-10-2018,02:15,8
03-10-2018,02:30,5
03-10-2018,02:45,7
03-10-2018,03:00,6
03-10-2018,03:15,3
03-10-2018,03:30,4
03-10-2018,03:45,4
03-10-2018,04:00,4
03-10-2018,04:15,4
03-10-2018,04:30,4
03-10-2018,04:45,6
03-10-2018,05:00,2
03-10-2018,05:15,6
03-10-2018,05:30,2
03-10-2018,05:45,13
03-10-2018,06:00,7
03-10-2018,06:15,5
03-10-2018,06:30,4
03-10-2018,06:45,13
03-10-2018,07:00,9
03-10-2018,07:15,20
03-10-2018,07:30,28
03-10-2018,07:45,57
03-10-2018,08:00,79
03-10-2018,08:15,87
03-10-2018,08:30,88
03-10-2018,08:45,93
03-10-2018,09:00,78
03-10-2018,09:15,87
03-10-2018,09:30,100
03-10-2018,09:45,78
03-10-2018,10:00,79
03-10-2018,10:15,78
03-10-2018,10:30,75
03-10-2018,10:45,67
03-10-2018,11:00,78
03-10-2018,11:15,60
03-10-2018,11:30,83
03-10-2018,11:45,64
03-10-2018,12:00,84
03-10-2018,12:15,81
03-10-2018,12:30,70
03-10-2018,12:45,103
03-10-2018,13:00,67
03-10-2018,13:15,83
03-10-2018,13:30,61
03-10-2018,13:45,77
03-10-2018,14:00,77
03-10-2018,14:15,71
03-10-2018,14:30,68
03-10-2018,14:45,89
03-10-2018,15:00,80
03-10-2018,15:15,83
03-10-2018,15:30,71
03-10-2018,15:45,75
03-10-2018,16:00,78
03-10-2018,16:15,66
03-10-2018,16:30,83
03-10-2018,16:45,88
03-10-2018,17:00,77
03-10-2018,17:15,67
03-10-2018,17:30,75
03-10-2018,17:45,49
03-10-2018,18:00,76
03-10-2018,18:15,79
03-10-2018,18:30,55
03-10-2018,18:45,70
03-10-2018,19:00,81
03-10-2018,19:15,92
03-10-2018,19:30,67
03-10-2018,19:45,81
03-10-2018,20:00,77
03-10-2018,20:15,76
03-10-2018,20:30,59
03-10-2018,20:45,84
03-10-2018,21:00,49
03-10-2018,21:15,55
03-10-2018,21:30,46
03-10-2018,21:45,44
03-10-2018,22:00,45
03-10-2018,22:15,33
03-10-2018,22:30,33
03-10-2018,22:45,39
03-10-2018,23:00,36
03-10-2018,23:15,29
03-10-2018,23:30,30
03-10-2018,23:45,28
04-10-2018,00:00,31
04-10-2018,00:15,27
04-10-2018,00:30,15
04-10-2018,00:45,15
04-10-2018,01:00,11
04-10-2018,01:15,9
04-10-2018,01:30,11
04-10-2018,01:45,12
04-10-2018,02:00,7
04-10-2018,02:15,6
04-10-2018,02:30,5
04-10-2018,02:45,4
04-10-2018,03:00,4
04-10-2018,03:15,3
04-10-2018,03:30,5
04-10-2018,03:45,3
04-10-2018,04:00,2
04-10-2018,04:15,1
04-10-2018,04:30,3
04-10-2018,04:45,2
04-10-2018,05:00,7
04-10-2018,05:15,4
04-10-2018,05:30,4
04-10-2018,05:45,11
04-10-2018,06:00,7
04-10-2018,06:15,8
04-10-2018,06:30,9
04-10-2018,06:45,12
04-10-2018,07:00,16
04-10-2018,07:15,17
04-10-2018,07:30,20
04-10-2018,07:45,44
04-10-2018,08:00,77
04-10-2018,08:15,71
04-10-2018,08:30,80
04-10-2018,08:45,100
04-10-2018,09:00,78
04-10-2018,09:15,74
04-10-2018,09:30,86
04-10-2018,09:45,94
04-10-2018,10:00,79
04-10-2018,10:15,71
04-10-2018,10:30,76
04-10-2018,10:45,65
04-10-2018,11:00,71
04-10-2018,11:15,70
04-10-2018,11:30,72
04-10-2018,11:45,63
04-10-2018,12:00,80
04-10-2018,12:15,60
