time,vehicle,way
2018-12-31 16:12:17,light,right-left
2018-12-31 16:12:22,light,left-right
2018-12-31 16:12:26,light,right-left
2018-12-31 16:12:38,bus,left-right
2018-12-31 16:12:50,light,right-left
2018-12-31 16:13:09,light,right-left
2018-12-31 16:13:11,light,right-left
2018-12-31 16:13:20,light,right-left
2018-12-31 16:13:38,bike,left-right
2018-12-31 16:13:47,light,left-right
2018-12-31 16:14:06,light,right-left
2018-12-31 16:14:08,light,left-right
2018-12-31 16:14:10,light,right-left
2018-12-31 16:14:12,light,left-right
2018-12-31 16:14:17,light,left-right
2018-12-31 16:14:23,light,left-right
2018-12-31 16:14:24,light,right-left
2018-12-31 16:14:34,light,right-left
2018-12-31 16:14:37,light,right-left
2018-12-31 16:14:43,light,left-right
2018-12-31 16:15:00,light,right-left
2018-12-31 16:15:02,light,right-left
2018-12-31 16:15:05,light,right-left
2018-12-31 16:15:24,light,left-right
2018-12-31 16:15:50,light,left-right
2018-12-31 16:16:02,light,left-right
2018-12-31 16:16:12,light,right-left
2018-12-31 16:16:13,motorcycle,right-left
2018-12-31 16:16:17,light,left-right
2018-12-31 16:16:23,light,right-left
2018-12-31 16:16:28,light,left-right
2018-12-31 16:16:51,light,right-left
2018-12-31 16:16:56,light,right-left
2018-12-31 16:17:01,light,right-left
2018-12-31 16:17:12,truck,right-left
2018-12-31 16:17:14,light,right-left
2018-12-31 16:17:29,light,right-left
2018-12-31 16:17:36,truck,left-right
2018-12-31 16:17:46,light,left-right
